{
  "swagger" : "2.0",
  "info" : {
    "version" : "2.0",
    "x-WM-USE_PROXY_FOR_WEB" : true,
    "x-WM-USE_PROXY_FOR_MOBILE" : true,
    "x-WM-API_ID" : "75e18e90-2b95-419a-b90c-7a6f140230a1",
    "x-WM-SERVICE_ID" : "healthipass",
    "x-WM-SERVICE_TYPE" : "RestService"
  },
  "host" : "hipxdev-app.healthipass.com",
  "basePath" : "",
  "tags" : [ {
    "name" : "RestServiceVirtualController",
    "description" : "Rest service swagger documentation"
  } ],
  "schemes" : [ "http" ],
  "paths" : {
    "/getIntegrationById/invoke/services/hip/integrations/{id}" : {
      "get" : {
        "tags" : [ "RestServiceVirtualController" ],
        "operationId" : "getIntegrationById_RestServiceVirtualController-invoke",
        "consumes" : [ "application/json" ],
        "produces" : [ "application/json" ],
        "parameters" : [ {
          "name" : "id",
          "in" : "path",
          "required" : true,
          "type" : "string"
        } ],
        "responses" : {
          "200" : {
            "description" : "Success",
            "schema" : {
              "$ref" : "#/definitions/RootResponse"
            }
          }
        },
        "x-WM-METHOD_NAME" : "invoke",
        "x-WM-ACCESS_SPECIFIER" : "APP_ONLY"
      },
      "x-WM-BASE_PATH" : "/getIntegrationById/invoke/services/hip/integrations/{id}",
      "x-WM-TAG" : "RestServiceVirtualController",
      "x-WM-RELATIVE_PATH" : "",
      "x-WM-COMPLETE_PATH" : "${rest.getIntegrationById.scheme}://${rest.getIntegrationById.host}${rest.getIntegrationById.basepath}/services/hip/integrations/{id}"
    }
  },
  "definitions" : {
    "RootResponse" : {
      "required" : [ "createdBy", "createdDatetime", "integrationAuthType", "integrationCategory", "integrationDescription", "integrationEndPoint", "integrationId", "integrationName", "integrationShortCode", "lastUpdatedDatetime", "requestType", "responseType", "updatedBy" ],
      "properties" : {
        "integrationCategory" : {
          "type" : "string"
        },
        "updatedBy" : {
          "type" : "string"
        },
        "requestType" : {
          "type" : "string"
        },
        "integrationName" : {
          "type" : "string"
        },
        "integrationId" : {
          "type" : "integer",
          "format" : "int32"
        },
        "lastUpdatedDatetime" : {
          "type" : "integer",
          "format" : "int64"
        },
        "integrationDescription" : {
          "type" : "string"
        },
        "responseType" : {
          "type" : "string"
        },
        "createdBy" : {
          "type" : "string"
        },
        "integrationShortCode" : {
          "type" : "string"
        },
        "integrationEndPoint" : {
          "type" : "string"
        },
        "integrationAuthType" : {
          "type" : "string"
        },
        "createdDatetime" : {
          "type" : "integer",
          "format" : "int64"
        }
      },
      "x-WM-FULLY_QUALIFIED_NAME" : "getIntegrationById.RootResponse",
      "x-WM-TAGS" : [ "RestServiceVirtualController" ]
    }
  }
}