{
  "endpointAddress" : "http://hipxdev-app.healthipass.com/HIP_SVCS/services/hip/integrations/{id}",
  "method" : "GET",
  "headers" : { },
  "redirectEnabled" : true,
  "requestBody" : "",
  "queryParams" : { },
  "authDetails" : null,
  "contentType" : "application/json",
  "multiParamInfoList" : null,
  "sampleHttpResponseDetails" : {
    "statusCode" : 200,
    "headers" : {
      "Cache-Control" : [ "max-age=0" ],
      "X-XSS-Protection" : [ "1; mode=block" ],
      "Content-Security-Policy" : [ "frame-ancestors 'self'" ],
      "X-Content-Type-Options" : [ "nosniff" ],
      "ETag" : [ "\"0587bf398859b8e186b3500b01810a7bb\"" ],
      "Content-Type" : [ "application/json;charset=UTF-8" ],
      "Content-Length" : [ "374" ],
      "Date" : [ "Tue, 11 Sep 2018 12:40:01 GMT" ],
      "Connection" : [ "keep-alive" ]
    },
    "responseBody" : "{\"integrationId\":1,\"integrationName\":\"Google map\",\"integrationCategory\":\"Eligitbility\",\"integrationShortCode\":\"GSON\",\"integrationAuthType\":\"basic\",\"integrationEndPoint\":\"http://www.google.com\",\"integrationDescription\":\"GSON INT\",\"requestType\":\"JSON\",\"responseType\":\"JSON\",\"createdBy\":null,\"createdDatetime\":1533821483000,\"updatedBy\":null,\"lastUpdatedDatetime\":1533821483000}",
    "convertedResponse" : null
  },
  "proxy" : null
}