{
  "endpointAddress" : "http://hipxdev-app.healthipass.com/HIP_SVCS/services/hip/contactTypes/{id}",
  "method" : "PUT",
  "headers" : { },
  "redirectEnabled" : true,
  "requestBody" : "{\n\t\t\t\"contactTypeId\": 1,\n\t\t\t\"contactType\": \"Scheduling\",\n\t\t\t\"createdBy\": 1,\n\t\t\t\"createdDatetime\": 1534522716000,\n\t\t\t\"updatedBy\": 1,\n\t\t\t\"lastUpdatedDatetime\": 1534522716000,\n\t\t\t\"version\": 1\n\t\t}",
  "queryParams" : { },
  "authDetails" : null,
  "contentType" : "application/json",
  "multiParamInfoList" : null,
  "sampleHttpResponseDetails" : {
    "statusCode" : 200,
    "headers" : {
      "X-XSS-Protection" : [ "1; mode=block" ],
      "Content-Security-Policy" : [ "frame-ancestors 'self'" ],
      "X-Content-Type-Options" : [ "nosniff" ],
      "Content-Type" : [ "application/json;charset=UTF-8" ],
      "Transfer-Encoding" : [ "chunked" ],
      "Vary" : [ "Accept-Encoding" ],
      "Date" : [ "Fri, 31 Aug 2018 11:42:05 GMT" ],
      "Connection" : [ "keep-alive" ]
    },
    "responseBody" : "{\"contactTypeId\":1,\"contactType\":\"Scheduling\",\"createdBy\":1,\"createdDatetime\":1534522716000,\"updatedBy\":1,\"lastUpdatedDatetime\":1534522716000,\"version\":1}",
    "convertedResponse" : null
  },
  "proxy" : null
}