{
  "swagger" : "2.0",
  "info" : {
    "version" : "2.0",
    "x-WM-USE_PROXY_FOR_WEB" : true,
    "x-WM-USE_PROXY_FOR_MOBILE" : true,
    "x-WM-API_ID" : "b7c57259-a709-4857-bc72-e04740544bf0",
    "x-WM-SERVICE_ID" : "healthipass",
    "x-WM-SERVICE_TYPE" : "RestService"
  },
  "host" : "hipxdev-app.healthipass.com",
  "basePath" : "",
  "tags" : [ {
    "name" : "RestServiceVirtualController",
    "description" : "Rest service swagger documentation"
  } ],
  "schemes" : [ "http" ],
  "paths" : {
    "/integrationList/invoke/services/hip/integrations" : {
      "get" : {
        "tags" : [ "RestServiceVirtualController" ],
        "operationId" : "integrationList_RestServiceVirtualController-invoke",
        "consumes" : [ "application/json" ],
        "parameters" : [ {
          "name" : "size",
          "in" : "query",
          "required" : false,
          "type" : "string",
          "format" : "string"
        }, {
          "name" : "page",
          "in" : "query",
          "required" : false,
          "type" : "string",
          "format" : "string"
        }, {
          "name" : "sort",
          "in" : "query",
          "required" : false,
          "type" : "string",
          "format" : "string"
        } ],
        "responses" : {
          "200" : {
            "description" : "Success",
            "schema" : {
              "$ref" : "#/definitions/RootResponse"
            }
          }
        },
        "x-WM-METHOD_NAME" : "invoke",
        "x-WM-ACCESS_SPECIFIER" : "APP_ONLY"
      },
      "x-WM-BASE_PATH" : "/integrationList/invoke/services/hip/integrations",
      "x-WM-TAG" : "RestServiceVirtualController",
      "x-WM-RELATIVE_PATH" : "",
      "x-WM-COMPLETE_PATH" : "${rest.integrationList.scheme}://${rest.integrationList.host}${rest.integrationList.basepath}/services/hip/integrations"
    }
  },
  "definitions" : {
    "contentEntryItem" : {
      "required" : [ "createdBy", "createdDatetime", "integrationAuthType", "integrationCategory", "integrationDescription", "integrationEndPoint", "integrationId", "integrationName", "integrationShortCode", "lastUpdatedDatetime", "requestType", "responseType", "updatedBy" ],
      "properties" : {
        "integrationCategory" : {
          "type" : "string"
        },
        "updatedBy" : {
          "type" : "string"
        },
        "requestType" : {
          "type" : "string"
        },
        "integrationName" : {
          "type" : "string"
        },
        "integrationId" : {
          "type" : "integer",
          "format" : "int32"
        },
        "lastUpdatedDatetime" : {
          "type" : "integer",
          "format" : "int64"
        },
        "integrationDescription" : {
          "type" : "string"
        },
        "responseType" : {
          "type" : "string"
        },
        "createdBy" : {
          "type" : "string"
        },
        "integrationShortCode" : {
          "type" : "string"
        },
        "integrationEndPoint" : {
          "type" : "string"
        },
        "integrationAuthType" : {
          "type" : "string"
        },
        "createdDatetime" : {
          "type" : "integer",
          "format" : "int64"
        }
      },
      "x-WM-FULLY_QUALIFIED_NAME" : "integrationList.contentEntryItem",
      "x-WM-TAGS" : [ "RestServiceVirtualController" ]
    },
    "sortEntryItem" : {
      "required" : [ "ascending", "direction", "ignoreCase", "nullHandling", "property" ],
      "properties" : {
        "nullHandling" : {
          "type" : "string"
        },
        "ignoreCase" : {
          "type" : "boolean"
        },
        "property" : {
          "type" : "string"
        },
        "ascending" : {
          "type" : "boolean"
        },
        "direction" : {
          "type" : "string"
        }
      },
      "x-WM-FULLY_QUALIFIED_NAME" : "integrationList.sortEntryItem",
      "x-WM-TAGS" : [ "RestServiceVirtualController" ]
    },
    "RootResponse" : {
      "required" : [ "content", "first", "last", "number", "numberOfElements", "size", "sort", "totalElements", "totalPages" ],
      "properties" : {
        "number" : {
          "type" : "integer",
          "format" : "int32"
        },
        "last" : {
          "type" : "boolean"
        },
        "numberOfElements" : {
          "type" : "integer",
          "format" : "int32"
        },
        "size" : {
          "type" : "integer",
          "format" : "int32"
        },
        "totalPages" : {
          "type" : "integer",
          "format" : "int32"
        },
        "sort" : {
          "type" : "array",
          "items" : {
            "$ref" : "#/definitions/sortEntryItem"
          },
          "x-WM-IS_LIST" : true
        },
        "content" : {
          "type" : "array",
          "items" : {
            "$ref" : "#/definitions/contentEntryItem"
          },
          "x-WM-IS_LIST" : true
        },
        "first" : {
          "type" : "boolean"
        },
        "totalElements" : {
          "type" : "integer",
          "format" : "int32"
        }
      },
      "x-WM-FULLY_QUALIFIED_NAME" : "integrationList.RootResponse",
      "x-WM-TAGS" : [ "RestServiceVirtualController" ]
    }
  }
}