{
  "basePath" : "${rest.locationList.basepath}",
  "paths" : {
    "/services/HIP/HipClientLocation" : {
      "x-WM-BASE_PATH" : "/services/HIP/HipClientLocation",
      "x-WM-TAG" : "RestServiceVirtualController",
      "x-WM-RELATIVE_PATH" : "",
      "get" : {
        "x-WM-METHOD_NAME" : "invoke",
        "x-WM-ACCESS_SPECIFIER" : "APP_ONLY",
        "operationId" : "locationList_RestServiceVirtualController-invoke",
        "responses" : {
          "200" : {
            "schema" : {
              "$ref" : "#/definitions/RootResponse"
            },
            "description" : "Success"
          }
        },
        "parameters" : [ {
          "in" : "query",
          "name" : "q",
          "format" : "string",
          "type" : "string",
          "required" : false
        }, {
          "in" : "query",
          "name" : "size",
          "format" : "string",
          "type" : "string",
          "required" : false
        }, {
          "in" : "query",
          "name" : "page",
          "format" : "string",
          "type" : "string",
          "required" : false
        }, {
          "in" : "query",
          "name" : "sort",
          "format" : "string",
          "type" : "string",
          "required" : false
        } ],
        "tags" : [ "RestServiceVirtualController" ],
        "consumes" : [ "application/json" ]
      },
      "x-WM-COMPLETE_PATH" : "${rest.locationList.scheme}://${rest.locationList.host}${rest.locationList.basepath}/services/HIP/HipClientLocation"
    }
  },
  "host" : "${rest.locationList.host}",
  "schemes" : [ "${rest.locationList.scheme}" ],
  "definitions" : {
    "hipClient" : {
      "x-WM-FULLY_QUALIFIED_NAME" : "locationList.hipClient",
      "x-WM-TAGS" : [ "RestServiceVirtualController" ],
      "required" : [ "businessName", "code", "createdBy", "createdDateTime", "id", "shortName", "status", "updatedBy", "updatedDateTime", "website" ],
      "properties" : {
        "website" : {
          "type" : "string"
        },
        "code" : {
          "type" : "string"
        },
        "updatedBy" : {
          "format" : "int32",
          "type" : "integer"
        },
        "createdBy" : {
          "format" : "int32",
          "type" : "integer"
        },
        "businessName" : {
          "type" : "string"
        },
        "createdDateTime" : {
          "format" : "int64",
          "type" : "integer"
        },
        "id" : {
          "format" : "int32",
          "type" : "integer"
        },
        "shortName" : {
          "type" : "string"
        },
        "status" : {
          "type" : "string"
        },
        "updatedDateTime" : {
          "format" : "int64",
          "type" : "integer"
        }
      }
    },
    "contentEntryItem" : {
      "x-WM-FULLY_QUALIFIED_NAME" : "locationList.contentEntryItem",
      "x-WM-TAGS" : [ "RestServiceVirtualController" ],
      "required" : [ "address1", "address2", "city", "clientId", "createdBy", "createdDateTime", "ehrLocationId", "ehrLocationName", "hipClient", "hipClientLocationByParentLocationId", "hipState", "hipTimezone", "id", "locationDescription", "locationName", "locationStatus", "parentLocationId", "shortLocationName", "stateId", "timezoneId", "updatedBy", "updatedDateTime", "zip" ],
      "properties" : {
        "zip" : {
          "type" : "string"
        },
        "hipClient" : {
          "$ref" : "#/definitions/hipClient"
        },
        "parentLocationId" : {
          "type" : "string"
        },
        "clientId" : {
          "format" : "int32",
          "type" : "integer"
        },
        "locationName" : {
          "type" : "string"
        },
        "updatedBy" : {
          "type" : "string"
        },
        "address2" : {
          "type" : "string"
        },
        "city" : {
          "type" : "string"
        },
        "address1" : {
          "type" : "string"
        },
        "hipClientLocationByParentLocationId" : {
          "type" : "string"
        },
        "locationDescription" : {
          "type" : "string"
        },
        "stateId" : {
          "format" : "int32",
          "type" : "integer"
        },
        "createdDateTime" : {
          "format" : "int64",
          "type" : "integer"
        },
        "hipState" : {
          "$ref" : "#/definitions/hipState"
        },
        "updatedDateTime" : {
          "format" : "int64",
          "type" : "integer"
        },
        "locationStatus" : {
          "type" : "string"
        },
        "ehrLocationId" : {
          "type" : "string"
        },
        "createdBy" : {
          "type" : "string"
        },
        "shortLocationName" : {
          "type" : "string"
        },
        "timezoneId" : {
          "format" : "int32",
          "type" : "integer"
        },
        "hipTimezone" : {
          "$ref" : "#/definitions/hipTimezone"
        },
        "id" : {
          "format" : "int32",
          "type" : "integer"
        },
        "ehrLocationName" : {
          "type" : "string"
        }
      }
    },
    "hipTimezone" : {
      "x-WM-FULLY_QUALIFIED_NAME" : "locationList.hipTimezone",
      "x-WM-TAGS" : [ "RestServiceVirtualController" ],
      "required" : [ "createdBy", "createdDateTime", "gmtOffset", "id", "timezoneName", "updatedBy", "updatedDateTime" ],
      "properties" : {
        "updatedBy" : {
          "type" : "string"
        },
        "createdBy" : {
          "format" : "int32",
          "type" : "integer"
        },
        "gmtOffset" : {
          "type" : "string"
        },
        "timezoneName" : {
          "type" : "string"
        },
        "createdDateTime" : {
          "format" : "int64",
          "type" : "integer"
        },
        "id" : {
          "format" : "int32",
          "type" : "integer"
        },
        "updatedDateTime" : {
          "format" : "int64",
          "type" : "integer"
        }
      }
    },
    "sortEntryItem" : {
      "x-WM-FULLY_QUALIFIED_NAME" : "locationList.sortEntryItem",
      "x-WM-TAGS" : [ "RestServiceVirtualController" ],
      "required" : [ "ascending", "direction", "ignoreCase", "nullHandling", "property" ],
      "properties" : {
        "nullHandling" : {
          "type" : "string"
        },
        "ignoreCase" : {
          "type" : "boolean"
        },
        "property" : {
          "type" : "string"
        },
        "ascending" : {
          "type" : "boolean"
        },
        "direction" : {
          "type" : "string"
        }
      }
    },
    "hipCountry" : {
      "x-WM-FULLY_QUALIFIED_NAME" : "locationList.hipCountry",
      "x-WM-TAGS" : [ "RestServiceVirtualController" ],
      "required" : [ "countryLongName", "countryName", "createdBy", "createdDateTime", "id", "iso2code", "iso3code", "updatedBy", "updatedDateTime" ],
      "properties" : {
        "updatedBy" : {
          "type" : "string"
        },
        "iso3code" : {
          "type" : "string"
        },
        "createdBy" : {
          "format" : "int32",
          "type" : "integer"
        },
        "countryLongName" : {
          "type" : "string"
        },
        "createdDateTime" : {
          "format" : "int64",
          "type" : "integer"
        },
        "id" : {
          "format" : "int32",
          "type" : "integer"
        },
        "countryName" : {
          "type" : "string"
        },
        "iso2code" : {
          "type" : "string"
        },
        "updatedDateTime" : {
          "type" : "string"
        }
      }
    },
    "hipState" : {
      "x-WM-FULLY_QUALIFIED_NAME" : "locationList.hipState",
      "x-WM-TAGS" : [ "RestServiceVirtualController" ],
      "required" : [ "countryId", "createdBy", "createdDateTime", "hipCountry", "id", "stateCode", "stateName", "updatedBy", "updatedDateTime" ],
      "properties" : {
        "updatedBy" : {
          "type" : "string"
        },
        "stateName" : {
          "type" : "string"
        },
        "createdBy" : {
          "format" : "int32",
          "type" : "integer"
        },
        "createdDateTime" : {
          "format" : "int64",
          "type" : "integer"
        },
        "stateCode" : {
          "type" : "string"
        },
        "id" : {
          "format" : "int32",
          "type" : "integer"
        },
        "hipCountry" : {
          "$ref" : "#/definitions/hipCountry"
        },
        "countryId" : {
          "format" : "int32",
          "type" : "integer"
        },
        "updatedDateTime" : {
          "type" : "string"
        }
      }
    },
    "RootResponse" : {
      "x-WM-FULLY_QUALIFIED_NAME" : "locationList.RootResponse",
      "x-WM-TAGS" : [ "RestServiceVirtualController" ],
      "required" : [ "content", "first", "last", "number", "numberOfElements", "size", "sort", "totalElements", "totalPages" ],
      "properties" : {
        "number" : {
          "format" : "int32",
          "type" : "integer"
        },
        "last" : {
          "type" : "boolean"
        },
        "numberOfElements" : {
          "format" : "int32",
          "type" : "integer"
        },
        "size" : {
          "format" : "int32",
          "type" : "integer"
        },
        "totalPages" : {
          "format" : "int32",
          "type" : "integer"
        },
        "sort" : {
          "x-WM-IS_LIST" : true,
          "type" : "array",
          "items" : {
            "$ref" : "#/definitions/sortEntryItem"
          }
        },
        "content" : {
          "x-WM-IS_LIST" : true,
          "type" : "array",
          "items" : {
            "$ref" : "#/definitions/contentEntryItem"
          }
        },
        "first" : {
          "type" : "boolean"
        },
        "totalElements" : {
          "format" : "int32",
          "type" : "integer"
        }
      }
    }
  },
  "swagger" : "2.0",
  "info" : {
    "x-WM-USE_PROXY_FOR_WEB" : true,
    "x-WM-USE_PROXY_FOR_MOBILE" : true,
    "x-WM-API_ID" : "137bdf3d-6466-4317-b401-ef0ab0de843a",
    "x-WM-SERVICE_ID" : "healthipass",
    "version" : "2.0",
    "x-WM-SERVICE_TYPE" : "RestService"
  },
  "tags" : [ {
    "name" : "RestServiceVirtualController",
    "description" : "Rest service swagger documentation"
  } ]
}