{
  "endpointAddress" : "http://hipxdev-app.healthipass.com/HIP_SVCS/services/hip/integrationServiceLists",
  "method" : "POST",
  "headers" : { },
  "redirectEnabled" : true,
  "requestBody" : "{\n\t\t\t\"integrationServiceId\": null,\n\t\t\t\"integrationId\": 2,\n\t\t\t\"integrationSvcName\": \"docusign\",\n\t\t\t\"integrationSvcType\": \"service\",\n\t\t\t\"integrationSvcEndPoint\": \"www.ed\",\n\t\t\t\"integrationSvcDescription\": \"digital signing\",\n\t\t\t\"createdBy\": null,\n\t\t\t\"createdDatetime\": 1534523172000,\n\t\t\t\"updatedBy\": null,\n\t\t\t\"lastUpdatedDatetime\": 1534523172000\n\t}",
  "queryParams" : { },
  "authDetails" : null,
  "contentType" : "application/json",
  "multiParamInfoList" : null,
  "sampleHttpResponseDetails" : {
    "statusCode" : 200,
    "headers" : {
      "X-XSS-Protection" : [ "1; mode=block" ],
      "Content-Security-Policy" : [ "frame-ancestors 'self'" ],
      "X-Content-Type-Options" : [ "nosniff" ],
      "Content-Type" : [ "application/json;charset=UTF-8" ],
      "Transfer-Encoding" : [ "chunked" ],
      "Vary" : [ "Accept-Encoding" ],
      "Date" : [ "Mon, 03 Sep 2018 07:01:57 GMT" ],
      "Connection" : [ "keep-alive" ]
    },
    "responseBody" : "{\"integrationServiceId\":3,\"integrationId\":2,\"integrationSvcName\":\"docusign\",\"integrationSvcType\":\"service\",\"integrationSvcEndPoint\":\"www.ed\",\"integrationSvcDescription\":\"digital signing\",\"createdBy\":null,\"createdDatetime\":1534523172000,\"updatedBy\":null,\"lastUpdatedDatetime\":1534523172000,\"hipIntegration\":{\"integrationId\":2,\"integrationName\":\"GSON\",\"integrationCategory\":\"Communication\",\"integrationShortCode\":\"GSON\",\"integrationAuthType\":\"basic\",\"integrationEndPoint\":\"http://www.google.com\",\"integrationDescription\":\"GSON INT\",\"requestType\":\"JSON\",\"responseType\":\"JSON\",\"createdBy\":null,\"createdDatetime\":1533821483000,\"updatedBy\":null,\"lastUpdatedDatetime\":1533821483000}}",
    "convertedResponse" : null
  },
  "proxy" : null
}