{
  "swagger" : "2.0",
  "info" : {
    "version" : "2.0",
    "x-WM-USE_PROXY_FOR_WEB" : true,
    "x-WM-USE_PROXY_FOR_MOBILE" : true,
    "x-WM-API_ID" : "5de31423-349d-429a-befd-19f89afdf363",
    "x-WM-SERVICE_ID" : "healthipass",
    "x-WM-SERVICE_TYPE" : "RestService"
  },
  "host" : "hipxdev-app.healthipass.com",
  "basePath" : "",
  "tags" : [ {
    "name" : "RestServiceVirtualController",
    "description" : "Rest service swagger documentation"
  } ],
  "schemes" : [ "http" ],
  "paths" : {
    "/createIntegrationService/invoke/services/hip/integrationServiceLists" : {
      "post" : {
        "tags" : [ "RestServiceVirtualController" ],
        "operationId" : "createIntegrationService_RestServiceVirtualController-invoke",
        "consumes" : [ "application/json" ],
        "produces" : [ "application/json" ],
        "parameters" : [ {
          "in" : "body",
          "name" : "RequestBody",
          "description" : "RequestBody",
          "required" : false,
          "schema" : {
            "$ref" : "#/definitions/RootRequest"
          },
          "x-WM-FULLY_QUALIFIED_TYPE" : "java.lang.Object"
        } ],
        "responses" : {
          "200" : {
            "description" : "Success",
            "schema" : {
              "$ref" : "#/definitions/RootResponse"
            }
          }
        },
        "x-WM-METHOD_NAME" : "invoke",
        "x-WM-ACCESS_SPECIFIER" : "APP_ONLY"
      },
      "x-WM-BASE_PATH" : "/createIntegrationService/invoke/services/hip/integrationServiceLists",
      "x-WM-TAG" : "RestServiceVirtualController",
      "x-WM-RELATIVE_PATH" : "",
      "x-WM-COMPLETE_PATH" : "${rest.createIntegrationService.scheme}://${rest.createIntegrationService.host}${rest.createIntegrationService.basepath}/services/hip/integrationServiceLists"
    }
  },
  "definitions" : {
    "hipIntegration" : {
      "required" : [ "createdBy", "createdDatetime", "integrationAuthType", "integrationCategory", "integrationDescription", "integrationEndPoint", "integrationId", "integrationName", "integrationShortCode", "lastUpdatedDatetime", "requestType", "responseType", "updatedBy" ],
      "properties" : {
        "integrationCategory" : {
          "type" : "string"
        },
        "updatedBy" : {
          "type" : "string"
        },
        "requestType" : {
          "type" : "string"
        },
        "integrationName" : {
          "type" : "string"
        },
        "integrationId" : {
          "type" : "integer",
          "format" : "int32"
        },
        "lastUpdatedDatetime" : {
          "type" : "integer",
          "format" : "int64"
        },
        "integrationDescription" : {
          "type" : "string"
        },
        "responseType" : {
          "type" : "string"
        },
        "createdBy" : {
          "type" : "string"
        },
        "integrationShortCode" : {
          "type" : "string"
        },
        "integrationEndPoint" : {
          "type" : "string"
        },
        "integrationAuthType" : {
          "type" : "string"
        },
        "createdDatetime" : {
          "type" : "integer",
          "format" : "int64"
        }
      },
      "x-WM-FULLY_QUALIFIED_NAME" : "createIntegrationService.hipIntegration",
      "x-WM-TAGS" : [ "RestServiceVirtualController" ]
    },
    "RootRequest" : {
      "required" : [ "createdBy", "createdDatetime", "integrationId", "integrationServiceId", "integrationSvcDescription", "integrationSvcEndPoint", "integrationSvcName", "integrationSvcType", "lastUpdatedDatetime", "updatedBy" ],
      "properties" : {
        "updatedBy" : {
          "type" : "string"
        },
        "createdBy" : {
          "type" : "string"
        },
        "integrationId" : {
          "type" : "integer",
          "format" : "int32"
        },
        "lastUpdatedDatetime" : {
          "type" : "integer",
          "format" : "int64"
        },
        "createdDatetime" : {
          "type" : "integer",
          "format" : "int64"
        },
        "integrationServiceId" : {
          "type" : "string"
        },
        "integrationSvcEndPoint" : {
          "type" : "string"
        },
        "integrationSvcType" : {
          "type" : "string"
        },
        "integrationSvcName" : {
          "type" : "string"
        },
        "integrationSvcDescription" : {
          "type" : "string"
        }
      },
      "x-WM-FULLY_QUALIFIED_NAME" : "createIntegrationService.RootRequest",
      "x-WM-TAGS" : [ "RestServiceVirtualController" ]
    },
    "RootResponse" : {
      "required" : [ "createdBy", "createdDatetime", "hipIntegration", "integrationId", "integrationServiceId", "integrationSvcDescription", "integrationSvcEndPoint", "integrationSvcName", "integrationSvcType", "lastUpdatedDatetime", "updatedBy" ],
      "properties" : {
        "updatedBy" : {
          "type" : "string"
        },
        "hipIntegration" : {
          "$ref" : "#/definitions/hipIntegration"
        },
        "createdBy" : {
          "type" : "string"
        },
        "integrationId" : {
          "type" : "integer",
          "format" : "int32"
        },
        "lastUpdatedDatetime" : {
          "type" : "integer",
          "format" : "int64"
        },
        "createdDatetime" : {
          "type" : "integer",
          "format" : "int64"
        },
        "integrationServiceId" : {
          "type" : "integer",
          "format" : "int32"
        },
        "integrationSvcEndPoint" : {
          "type" : "string"
        },
        "integrationSvcType" : {
          "type" : "string"
        },
        "integrationSvcName" : {
          "type" : "string"
        },
        "integrationSvcDescription" : {
          "type" : "string"
        }
      },
      "x-WM-FULLY_QUALIFIED_NAME" : "createIntegrationService.RootResponse",
      "x-WM-TAGS" : [ "RestServiceVirtualController" ]
    }
  }
}