{
  "endpointAddress" : "http://hipxdev-app.healthipass.com/HIP_SVCS/services/hip/contacts",
  "method" : "POST",
  "headers" : { },
  "redirectEnabled" : true,
  "requestBody" : "{\n\t\t\t\"clientLocationContactId\": null,\n\t\t\t\"contactTypeId\": 1,\n\t\t\t\"clientLocationId\": 8,\n\t\t\t\"title\": \"JAMES\",\n\t\t\t\"firstName\": \"James Adams\",\n\t\t\t\"lastName\": \"\",\n\t\t\t\"phoneHome\": \"8523695823\",\n\t\t\t\"phoneWork\": null,\n\t\t\t\"phoneCell\": null,\n\t\t\t\"emailId\": \"test@healthipass.com\",\n\t\t\t\"contactStatus\": \"Hold\",\n\t\t\t\"contactDescription\": \"Sample description for James\",\n\t\t\t\"createdBy\": 1,\n\t\t\t\"createdDatetime\": 1534523165000,\n\t\t\t\"updatedBy\": 1,\n\t\t\t\"lastUpdatedDatetime\": 1534523172000\n}",
  "queryParams" : { },
  "authDetails" : null,
  "contentType" : "application/json",
  "multiParamInfoList" : null,
  "sampleHttpResponseDetails" : {
    "statusCode" : 0,
    "headers" : { },
    "responseBody" : "{\"clientLocationContactId\":36,\"contactTypeId\":1,\"clientLocationId\":8,\"title\":\"JAMES\",\"firstName\":\"James Adams\",\"lastName\":\"\",\"phoneHome\":\"8523695823\",\"phoneWork\":null,\"phoneCell\":null,\"emailId\":\"test@healthipass.com\",\"contactStatus\":\"Hold\",\"contactDescription\":\"Sample description for James\",\"createdBy\":1,\"createdDatetime\":1534523165000,\"updatedBy\":1,\"lastUpdatedDatetime\":1534523172000,\"hipClientLocation\":{\"clientLocationId\":8,\"clientId\":1,\"parentLocationId\":6,\"locationName\":\"Oak Brook\",\"locationDescription\":\"\",\"shortLocationName\":null,\"pmLocationId\":null,\"pmLocationName\":null,\"address1\":\"1st Floor, Dwaraka Mindspace, Plot No. 28\",\"address2\":\"Gaffoor Nagar\",\"city\":\"Secunderabad\",\"stateId\":13,\"zip\":\"456867\",\"locationStatus\":\"Active\",\"timezoneId\":5,\"createdBy\":null,\"createdDatetime\":1534917322000,\"updatedBy\":null,\"lastUpdatedDatetime\":1535438131000,\"hipState\":{\"stateId\":13,\"stateName\":\"Illinois\",\"stateCode\":\"IL\",\"countryId\":237,\"createdBy\":null,\"createdDatettime\":1535436649000,\"updatedBy\":null,\"lastUpdatedDatetime\":null,\"hipCountry\":{\"countryId\":237,\"countryName\":\"United States of America\",\"countryLongName\":\"United States of America (the)\",\"iso2Code\":\"US\",\"iso3Code\":\"USA\",\"createdBy\":0,\"createdDatetime\":1534291200000,\"updatedBy\":null,\"lastUpdatedDatetime\":null}},\"hipClientLocationByParentLocationId\":{\"clientLocationId\":6,\"clientId\":1,\"parentLocationId\":null,\"locationName\":\"Hyderabad\",\"locationDescription\":\"Greater Hyderabad\",\"shortLocationName\":null,\"pmLocationId\":null,\"pmLocationName\":null,\"address1\":\"1111 West 22nd Street, Suite 222\",\"address2\":\"Oak Brook, IL 60523\",\"city\":\"Oak Brook, IL 60523\",\"stateId\":3,\"zip\":\"890798\",\"locationStatus\":\"Active\",\"timezoneId\":5,\"createdBy\":null,\"createdDatetime\":1534917322000,\"updatedBy\":null,\"lastUpdatedDatetime\":1535438131000,\"hipState\":{\"stateId\":3,\"stateName\":\"Arizona\",\"stateCode\":\"AZ\",\"countryId\":237,\"createdBy\":null,\"createdDatettime\":1535436649000,\"updatedBy\":null,\"lastUpdatedDatetime\":null,\"hipCountry\":{\"countryId\":237,\"countryName\":\"United States of America\",\"countryLongName\":\"United States of America (the)\",\"iso2Code\":\"US\",\"iso3Code\":\"USA\",\"createdBy\":0,\"createdDatetime\":1534291200000,\"updatedBy\":null,\"lastUpdatedDatetime\":null}},\"hipClient\":{\"clientId\":1,\"clientCode\":\"NOI\",\"clientBusinessName\":\"Newport Orthopedic Institute\",\"clientShortName\":\"NOI\",\"clientWebSite\":\"https://www.newportortho.com/\",\"clientStatus\":\"Inactive\",\"createdBy\":1,\"createdDatetime\":1533821483000,\"updatedBy\":1,\"lastUpdatedDatetime\":1535438091000},\"hipTimezone\":{\"timezoneId\":5,\"timezoneName\":\"Alaska\",\"gmtOffset\":\"\",\"createdBy\":0,\"createdDatetime\":null,\"updatedBy\":null,\"lastUpdatedDatetime\":null}},\"hipClient\":{\"clientId\":1,\"clientCode\":\"NOI\",\"clientBusinessName\":\"Newport Orthopedic Institute\",\"clientShortName\":\"NOI\",\"clientWebSite\":\"https://www.newportortho.com/\",\"clientStatus\":\"Inactive\",\"createdBy\":1,\"createdDatetime\":1533821483000,\"updatedBy\":1,\"lastUpdatedDatetime\":1535438091000},\"hipTimezone\":{\"timezoneId\":5,\"timezoneName\":\"Alaska\",\"gmtOffset\":\"\",\"createdBy\":0,\"createdDatetime\":null,\"updatedBy\":null,\"lastUpdatedDatetime\":null}},\"hipContactType\":{\"contactTypeId\":1,\"contactType\":\"Scheduling\",\"createdBy\":1,\"createdDatetime\":1534522716000,\"updatedBy\":1,\"lastUpdatedDatetime\":1534522716000,\"version\":1}}",
    "convertedResponse" : null
  },
  "proxy" : null
}