{
  "endpointAddress" : "http://hipxdev-app.healthipass.com/HIP_SVCS/services/HIP/HipClientLocation/{id}",
  "method" : "GET",
  "headers" : { },
  "redirectEnabled" : true,
  "requestBody" : "",
  "queryParams" : { },
  "authDetails" : null,
  "contentType" : "application/json",
  "multiParamInfoList" : null,
  "sampleHttpResponseDetails" : {
    "statusCode" : 200,
    "headers" : {
      "Cache-Control" : [ "max-age=0" ],
      "X-XSS-Protection" : [ "1; mode=block" ],
      "Content-Security-Policy" : [ "frame-ancestors 'self'" ],
      "X-Content-Type-Options" : [ "nosniff" ],
      "ETag" : [ "\"02a7b1463a788003073a0f3d107b4f634\"" ],
      "Content-Type" : [ "application/json;charset=UTF-8" ],
      "Transfer-Encoding" : [ "chunked" ],
      "Vary" : [ "Accept-Encoding" ],
      "Date" : [ "Thu, 04 Oct 2018 05:52:23 GMT" ],
      "Connection" : [ "keep-alive" ]
    },
    "responseBody" : "{\"id\":6,\"clientId\":1,\"parentLocationId\":null,\"locationName\":\"Test Location\",\"locationDescription\":\"Test location description\",\"shortLocationName\":\"TestLocationShortName\",\"ehrLocationId\":\"TESTPMID\",\"ehrLocationName\":\"TESTPMNAME\",\"address1\":\"Address line 1\",\"address2\":\"Address line 2\",\"city\":\"City\",\"stateId\":13,\"zip\":\"55555\",\"locationStatus\":\"inactive\",\"timezoneId\":2,\"createdBy\":null,\"createdDateTime\":1537412832000,\"updatedBy\":null,\"updatedDateTime\":1537413500000,\"hipState\":{\"id\":13,\"stateName\":\"Illinois\",\"stateCode\":\"IL\",\"countryId\":237,\"createdBy\":0,\"createdDateTime\":1535454649000,\"updatedBy\":null,\"updatedDateTime\":null,\"hipCountry\":{\"id\":237,\"countryName\":\"United States of America\",\"countryLongName\":\"United States of America (the)\",\"iso2code\":\"US\",\"iso3code\":\"USA\",\"createdBy\":0,\"createdDateTime\":1534309200000,\"updatedBy\":null,\"updatedDateTime\":null}},\"hipClientLocationByParentLocationId\":null,\"hipClient\":{\"id\":1,\"code\":\"NOI\",\"businessName\":\"Newport Orthopedic Institute\",\"shortName\":\"TEST2\",\"website\":\"http://www.newportortho.com/\",\"status\":\"active\",\"createdBy\":1,\"createdDateTime\":1533821483000,\"updatedBy\":12,\"updatedDateTime\":1537860165000},\"hipTimezone\":{\"id\":2,\"timezoneName\":\"Central\",\"gmtOffset\":\"\",\"createdBy\":0,\"createdDateTime\":1537341618000,\"updatedBy\":null,\"updatedDateTime\":1537341648000}}",
    "convertedResponse" : null
  },
  "proxy" : null
}