{
  "swagger" : "2.0",
  "info" : {
    "version" : "2.0",
    "x-WM-USE_PROXY_FOR_WEB" : true,
    "x-WM-USE_PROXY_FOR_MOBILE" : true,
    "x-WM-API_ID" : "d6588bb8-31fc-45db-94ed-89c47ba5f8e7",
    "x-WM-SERVICE_ID" : "healthipass",
    "x-WM-SERVICE_TYPE" : "RestService"
  },
  "host" : "hipxdev-app.healthipass.com",
  "basePath" : "",
  "tags" : [ {
    "name" : "RestServiceVirtualController",
    "description" : "Rest service swagger documentation"
  } ],
  "schemes" : [ "http" ],
  "paths" : {
    "/createContactType/invoke/services/hip/contactTypes" : {
      "post" : {
        "tags" : [ "RestServiceVirtualController" ],
        "operationId" : "createContactType_RestServiceVirtualController-invoke",
        "consumes" : [ "application/json" ],
        "produces" : [ "application/json" ],
        "parameters" : [ {
          "in" : "body",
          "name" : "RequestBody",
          "description" : "RequestBody",
          "required" : false,
          "schema" : {
            "$ref" : "#/definitions/RootRequest"
          },
          "x-WM-FULLY_QUALIFIED_TYPE" : "java.lang.Object"
        } ],
        "responses" : {
          "200" : {
            "description" : "Success",
            "schema" : {
              "$ref" : "#/definitions/RootResponse"
            }
          }
        },
        "x-WM-METHOD_NAME" : "invoke",
        "x-WM-ACCESS_SPECIFIER" : "APP_ONLY"
      },
      "x-WM-BASE_PATH" : "/createContactType/invoke/services/hip/contactTypes",
      "x-WM-TAG" : "RestServiceVirtualController",
      "x-WM-RELATIVE_PATH" : "",
      "x-WM-COMPLETE_PATH" : "${rest.createContactType.scheme}://${rest.createContactType.host}${rest.createContactType.basepath}/services/hip/contactTypes"
    }
  },
  "definitions" : {
    "RootRequest" : {
      "required" : [ "contactType", "contactTypeId", "createdBy", "createdDatetime", "lastUpdatedDatetime", "updatedBy", "version" ],
      "properties" : {
        "updatedBy" : {
          "type" : "integer",
          "format" : "int32"
        },
        "createdBy" : {
          "type" : "integer",
          "format" : "int32"
        },
        "lastUpdatedDatetime" : {
          "type" : "integer",
          "format" : "int64"
        },
        "contactType" : {
          "type" : "string"
        },
        "createdDatetime" : {
          "type" : "integer",
          "format" : "int64"
        },
        "contactTypeId" : {
          "type" : "integer",
          "format" : "int32"
        },
        "version" : {
          "type" : "integer",
          "format" : "int32"
        }
      },
      "x-WM-FULLY_QUALIFIED_NAME" : "createContactType.RootRequest",
      "x-WM-TAGS" : [ "RestServiceVirtualController" ]
    },
    "RootResponse" : {
      "required" : [ "contactType", "contactTypeId", "createdBy", "createdDatetime", "lastUpdatedDatetime", "updatedBy", "version" ],
      "properties" : {
        "updatedBy" : {
          "type" : "integer",
          "format" : "int32"
        },
        "createdBy" : {
          "type" : "integer",
          "format" : "int32"
        },
        "lastUpdatedDatetime" : {
          "type" : "integer",
          "format" : "int64"
        },
        "contactType" : {
          "type" : "string"
        },
        "createdDatetime" : {
          "type" : "integer",
          "format" : "int64"
        },
        "contactTypeId" : {
          "type" : "integer",
          "format" : "int32"
        },
        "version" : {
          "type" : "integer",
          "format" : "int32"
        }
      },
      "x-WM-FULLY_QUALIFIED_NAME" : "createContactType.RootResponse",
      "x-WM-TAGS" : [ "RestServiceVirtualController" ]
    }
  }
}