{
  "endpointAddress" : "http://hipxdev-app.healthipass.com/HIP_SVCS/services/HIP/HipClient/{id}",
  "method" : "PUT",
  "headers" : { },
  "redirectEnabled" : true,
  "requestBody" : "{\t\t\n\t\"id\": 1,\n\t\t\t\"code\": \"NOI\",\n\t\t\t\"businessName\": \"Newport Orthopedic Institute\",\n\t\t\t\"shortName\": \"TEST2\",\n\t\t\t\"website\": \"http://www.newportortho.com/\",\n\t\t\t\"status\": \"active\",\n\t\t\t\"createdBy\": 1,\n\t\t\t\"createdDateTime\": 1533821483000,\n\t\t\t\"updatedBy\": 12,\n\t\t\t\"updatedDateTime\": 1537860165000\n}",
  "queryParams" : { },
  "authDetails" : null,
  "contentType" : "application/json",
  "multiParamInfoList" : null,
  "sampleHttpResponseDetails" : {
    "statusCode" : 0,
    "headers" : { },
    "responseBody" : "{\"id\":1,\"code\":\"NOI\",\"businessName\":\"Newport Orthopedic Institute\",\"shortName\":\"TEST2\",\"website\":\"http://www.newportortho.com/\",\"status\":\"active\",\"createdBy\":1,\"createdDateTime\":1533821483000,\"updatedBy\":12,\"updatedDateTime\":1537860165000}",
    "convertedResponse" : null
  },
  "proxy" : null
}