{
  "swagger" : "2.0",
  "info" : {
    "version" : "2.0",
    "x-WM-USE_PROXY_FOR_WEB" : true,
    "x-WM-USE_PROXY_FOR_MOBILE" : true,
    "x-WM-API_ID" : "f9abb13d-111c-4de3-a4ba-198bed86cab4",
    "x-WM-SERVICE_ID" : "healthipass",
    "x-WM-SERVICE_TYPE" : "RestService"
  },
  "host" : "hipxdev-app.healthipass.com",
  "basePath" : "/HIP_SVCS",
  "tags" : [ {
    "name" : "RestServiceVirtualController",
    "description" : "Rest service swagger documentation"
  } ],
  "schemes" : [ "http" ],
  "paths" : {
    "/services/HIP/HipClient/{id}" : {
      "put" : {
        "tags" : [ "RestServiceVirtualController" ],
        "operationId" : "editClient_RestServiceVirtualController-invoke",
        "consumes" : [ "application/json" ],
        "parameters" : [ {
          "in" : "body",
          "name" : "RequestBody",
          "description" : "RequestBody",
          "required" : false,
          "schema" : {
            "$ref" : "#/definitions/RootRequest"
          },
          "x-WM-FULLY_QUALIFIED_TYPE" : "java.lang.Object"
        }, {
          "name" : "id",
          "in" : "path",
          "required" : true,
          "type" : "string"
        } ],
        "responses" : {
          "200" : {
            "description" : "Success",
            "schema" : {
              "$ref" : "#/definitions/RootResponse"
            }
          }
        },
        "x-WM-METHOD_NAME" : "invoke",
        "x-WM-ACCESS_SPECIFIER" : "APP_ONLY"
      },
      "x-WM-BASE_PATH" : "/services/HIP/HipClient/{id}",
      "x-WM-TAG" : "RestServiceVirtualController",
      "x-WM-RELATIVE_PATH" : "",
      "x-WM-COMPLETE_PATH" : "${rest.editClient.scheme}://${rest.editClient.host}${rest.editClient.basepath}/services/HIP/HipClient/{id}"
    }
  },
  "definitions" : {
    "RootRequest" : {
      "required" : [ "businessName", "code", "createdBy", "createdDateTime", "id", "shortName", "status", "updatedBy", "updatedDateTime", "website" ],
      "properties" : {
        "website" : {
          "type" : "string"
        },
        "code" : {
          "type" : "string"
        },
        "updatedBy" : {
          "type" : "integer",
          "format" : "int32"
        },
        "createdBy" : {
          "type" : "integer",
          "format" : "int32"
        },
        "businessName" : {
          "type" : "string"
        },
        "createdDateTime" : {
          "type" : "integer",
          "format" : "int64"
        },
        "id" : {
          "type" : "integer",
          "format" : "int32"
        },
        "shortName" : {
          "type" : "string"
        },
        "status" : {
          "type" : "string"
        },
        "updatedDateTime" : {
          "type" : "integer",
          "format" : "int64"
        }
      },
      "x-WM-FULLY_QUALIFIED_NAME" : "editClient.RootRequest",
      "x-WM-TAGS" : [ "RestServiceVirtualController" ]
    },
    "RootResponse" : {
      "required" : [ "businessName", "code", "createdBy", "createdDateTime", "id", "shortName", "status", "updatedBy", "updatedDateTime", "website" ],
      "properties" : {
        "website" : {
          "type" : "string"
        },
        "code" : {
          "type" : "string"
        },
        "updatedBy" : {
          "type" : "integer",
          "format" : "int32"
        },
        "createdBy" : {
          "type" : "integer",
          "format" : "int32"
        },
        "businessName" : {
          "type" : "string"
        },
        "createdDateTime" : {
          "type" : "integer",
          "format" : "int64"
        },
        "id" : {
          "type" : "integer",
          "format" : "int32"
        },
        "shortName" : {
          "type" : "string"
        },
        "status" : {
          "type" : "string"
        },
        "updatedDateTime" : {
          "type" : "integer",
          "format" : "int64"
        }
      },
      "x-WM-FULLY_QUALIFIED_NAME" : "editClient.RootResponse",
      "x-WM-TAGS" : [ "RestServiceVirtualController" ]
    }
  }
}