{
  "createIntegration" : {
    "_id" : "wm-createIntegration-wm.ServiceVariable-1535623728489",
    "name" : "createIntegration",
    "owner" : "Page",
    "category" : "wm.ServiceVariable",
    "dataBinding" : [ {
      "isList" : false,
      "target" : "RequestBody",
      "value" : "{\n\t\"integrationId\": null,\n\t\"integrationName\": \"GSON\",\n\t\"integrationCategory\": \"Eligitbility\",\n\t\"integrationShortCode\": \"GSON\",\n\t\"integrationAuthType\": \"basic\",\n\t\"integrationEndPoint\": \"http://www.google.com\",\n\t\"integrationDescription\": \"GSON INT\",\n\t\"requestType\": \"JSON\",\n\t\"responseType\": \"JSON\",\n\t\"createdBy\": null,\n\t\"createdDatetime\": 1533821483000,\n\t\"updatedBy\": null,\n\t\"lastUpdatedDatetime\": 1533821483000\n}",
      "type" : "createIntegration.RootRequest"
    } ],
    "type" : "createIntegration.RootResponse",
    "service" : "createIntegration",
    "operation" : "invoke",
    "operationId" : "createIntegration_RestServiceVirtualController-invoke",
    "operationType" : "post",
    "serviceType" : "RestService",
    "dataSet" : [ ],
    "isList" : false,
    "maxResults" : 20,
    "onSuccess" : "Widgets.integrationDialog.close();Variables.IntegrationList.invoke()",
    "startUpdate" : false,
    "autoUpdate" : false,
    "inFlightBehavior" : "executeLast",
    "transformationRequired" : false,
    "saveInPhonegap" : false,
    "controller" : "RestServiceVirtual"
  },
  "editIntegration" : {
    "_id" : "wm-editIntegration-wm.ServiceVariable-1535623751135",
    "name" : "editIntegration",
    "owner" : "Page",
    "category" : "wm.ServiceVariable",
    "dataBinding" : [ {
      "isList" : false,
      "target" : "RequestBody",
      "value" : "{\n\"integrationId\": 1,\n\"integrationName\": \"GSON\",\n\"integrationCategory\": \"Eligitbility\",\n\"integrationShortCode\": \"GSON\",\n\"integrationAuthType\": \"basic\",\n\"integrationEndPoint\": \"http://www.google.com\",\n\"integrationDescription\": \"GSON INT\",\n\"requestType\": \"JSON\",\n\"responseType\": \"JSON\",\n\"createdBy\": null,\n\"createdDatetime\": 1533821483000,\n\"updatedBy\": null,\n\"lastUpdatedDatetime\": 1533821483000,\n\"version\": 1\n}",
      "type" : "editIntegration.RootRequest"
    }, {
      "target" : "id",
      "value" : "bind:Variables.stvEditIntegration.dataSet.integrationId",
      "type" : "string"
    } ],
    "type" : "editIntegration.RootResponse",
    "service" : "editIntegration",
    "operation" : "invoke",
    "operationId" : "editIntegration_RestServiceVirtualController-invoke",
    "operationType" : "put",
    "serviceType" : "RestService",
    "dataSet" : [ ],
    "isList" : false,
    "maxResults" : 20,
    "onSuccess" : "Widgets.integrationDialog.close();Variables.IntegrationList.invoke()",
    "startUpdate" : false,
    "autoUpdate" : false,
    "inFlightBehavior" : "executeLast",
    "transformationRequired" : false,
    "saveInPhonegap" : false,
    "controller" : "RestServiceVirtual"
  },
  "IntegrationList" : {
    "_id" : "wm-IntegrationListInvoke-wm.ServiceVariable-1535455227054",
    "name" : "IntegrationList",
    "owner" : "Page",
    "category" : "wm.ServiceVariable",
    "dataBinding" : [ {
      "target" : "size",
      "value" : "5",
      "type" : "string"
    }, {
      "target" : "page",
      "value" : "1",
      "type" : "string"
    } ],
    "type" : "integrationList.RootResponse",
    "service" : "integrationList",
    "operation" : "invoke",
    "operationId" : "integrationList_RestServiceVirtualController-invoke",
    "operationType" : "get",
    "serviceType" : "RestService",
    "dataSet" : [ ],
    "isList" : false,
    "maxResults" : 20,
    "startUpdate" : true,
    "autoUpdate" : false,
    "inFlightBehavior" : "executeLast",
    "transformationRequired" : false,
    "saveInPhonegap" : false,
    "isDefault" : true,
    "controller" : "RestServiceVirtual"
  },
  "ngIntegrationServices" : {
    "_id" : "wm-ngIntegrationServices-wm.NavigationVariable-1536668642095",
    "name" : "ngIntegrationServices",
    "owner" : "Page",
    "category" : "wm.NavigationVariable",
    "dataBinding" : [ {
      "target" : "pageName",
      "value" : "IntegrationServices",
      "type" : "string"
    } ],
    "operation" : "gotoPage",
    "dataSet" : [ {
      "type" : "string",
      "target" : "integrationId",
      "value" : "bind:Widgets.integrationListTable.selecteditem.integrationId | numberToString"
    } ],
    "pageTransitions" : "none"
  },
  "stvBreadcrumb" : {
    "_id" : "wm-stvBreadcrumb-wm.Variable-1535704194242",
    "name" : "stvBreadcrumb",
    "owner" : "Page",
    "category" : "wm.Variable",
    "dataBinding" : [ ],
    "dataSet" : [ {
      "page" : "",
      "label" : "Main",
      "icon" : "",
      "link" : "#/Main",
      "role" : "",
      "type" : ""
    }, {
      "page" : "",
      "label" : "Integration",
      "icon" : "",
      "link" : "#/Integration",
      "role" : "",
      "type" : ""
    } ],
    "type" : "entry",
    "isList" : false,
    "saveInPhonegap" : false
  },
  "stvCreateIntegration" : {
    "_id" : "wm-stvCreateIntegration-wm.Variable-1535623221373",
    "name" : "stvCreateIntegration",
    "owner" : "Page",
    "category" : "wm.Variable",
    "dataBinding" : [ {
      "target" : "integrationName",
      "value" : "bind:Widgets.createIntegrationForm.formWidgets.textIntegrationName.datavalue"
    }, {
      "target" : "integrationCategory",
      "value" : "bind:Widgets.createIntegrationForm.formWidgets.selectIntegrationCategory.datavalue"
    }, {
      "target" : "integrationShortCode",
      "value" : "bind:Widgets.createIntegrationForm.formWidgets.textIntegrationShortCode.datavalue"
    }, {
      "target" : "integrationAuthType",
      "value" : "bind:Widgets.createIntegrationForm.formWidgets.textIntegrationAuthType.datavalue"
    }, {
      "target" : "integrationEndPoint",
      "value" : "bind:Widgets.createIntegrationForm.formWidgets.textIntegrationEndPoint.datavalue"
    }, {
      "target" : "integrationDescription",
      "value" : "bind:Widgets.createIntegrationForm.formWidgets.textIntegrationDescription.datavalue"
    }, {
      "target" : "requestType",
      "value" : "bind:Widgets.createIntegrationForm.formWidgets.textRequestType.datavalue"
    }, {
      "target" : "responseType",
      "value" : "bind:Widgets.createIntegrationForm.formWidgets.textResponseType.datavalue"
    } ],
    "dataSet" : {
      "integrationId" : null,
      "integrationName" : "",
      "integrationCategory" : "",
      "integrationShortCode" : "",
      "integrationAuthType" : "",
      "integrationEndPoint" : "",
      "integrationDescription" : "",
      "requestType" : "",
      "responseType" : "",
      "createdBy" : null,
      "createdDatetime" : 1533821483000,
      "updatedBy" : null,
      "lastUpdatedDatetime" : 1533821483000
    },
    "type" : "string",
    "isList" : false,
    "saveInPhonegap" : false
  },
  "stvEditIntegration" : {
    "_id" : "wm-stvEditIntegration-wm.Variable-1535623294642",
    "name" : "stvEditIntegration",
    "owner" : "Page",
    "category" : "wm.Variable",
    "dataBinding" : [ ],
    "dataSet" : {
      "integrationId" : "",
      "integrationName" : "",
      "integrationCategory" : "",
      "integrationShortCode" : "",
      "integrationAuthType" : "",
      "integrationEndPoint" : "",
      "integrationDescription" : "",
      "requestType" : "",
      "responseType" : "",
      "createdBy" : null,
      "createdDatetime" : 1533821483000,
      "updatedBy" : null,
      "lastUpdatedDatetime" : 1533821483000
    },
    "type" : "string",
    "isList" : false,
    "saveInPhonegap" : false
  },
  "stvIntegrationCategory" : {
    "_id" : "wm-stvIntegrationCategory-wm.Variable-1535622515304",
    "name" : "stvIntegrationCategory",
    "owner" : "Page",
    "category" : "wm.Variable",
    "dataBinding" : [ ],
    "dataSet" : [ {
      "key" : "Practice Mgmt",
      "dataValue" : "Practice Mgmt"
    }, {
      "key" : "Communication",
      "dataValue" : "Communication"
    }, {
      "key" : "Eligitbility",
      "dataValue" : "Eligitbility"
    }, {
      "key" : "Log",
      "dataValue" : "Log"
    }, {
      "key" : "Payment",
      "dataValue" : "Payment"
    }, {
      "key" : "Reporting",
      "dataValue" : "Reporting"
    }, {
      "key" : "Other",
      "dataValue" : "Other"
    } ],
    "type" : "string",
    "isList" : true,
    "saveInPhonegap" : false
  }
}