{
  "basePath" : "${rest.createClientLocationIntegrationConfig.basepath}",
  "paths" : {
    "/services/hip/clientLocationIntegrationConfigs" : {
      "post" : {
        "x-WM-METHOD_NAME" : "invoke",
        "x-WM-ACCESS_SPECIFIER" : "APP_ONLY",
        "produces" : [ "application/json" ],
        "operationId" : "createClientLocationIntegrationConfig_RestServiceVirtualController-invoke",
        "responses" : {
          "200" : {
            "schema" : {
              "$ref" : "#/definitions/RootResponse"
            },
            "description" : "Success"
          }
        },
        "parameters" : [ {
          "schema" : {
            "$ref" : "#/definitions/RootRequest"
          },
          "in" : "body",
          "name" : "RequestBody",
          "description" : "RequestBody",
          "x-WM-FULLY_QUALIFIED_TYPE" : "java.lang.Object",
          "required" : false
        } ],
        "tags" : [ "RestServiceVirtualController" ],
        "consumes" : [ "application/json" ]
      },
      "x-WM-BASE_PATH" : "/services/hip/clientLocationIntegrationConfigs",
      "x-WM-TAG" : "RestServiceVirtualController",
      "x-WM-RELATIVE_PATH" : "",
      "x-WM-COMPLETE_PATH" : "${rest.createClientLocationIntegrationConfig.scheme}://${rest.createClientLocationIntegrationConfig.host}${rest.createClientLocationIntegrationConfig.basepath}/services/hip/clientLocationIntegrationConfigs"
    }
  },
  "host" : "${rest.createClientLocationIntegrationConfig.host}",
  "schemes" : [ "${rest.createClientLocationIntegrationConfig.scheme}" ],
  "definitions" : {
    "hipClient" : {
      "x-WM-FULLY_QUALIFIED_NAME" : "createClientLocationIntegrationConfig.hipClient",
      "x-WM-TAGS" : [ "RestServiceVirtualController" ],
      "required" : [ "clientBusinessName", "clientCode", "clientId", "clientShortName", "clientStatus", "clientWebSite", "createdBy", "createdDatetime", "lastUpdatedDatetime", "updatedBy" ],
      "properties" : {
        "clientId" : {
          "format" : "int32",
          "type" : "integer"
        },
        "updatedBy" : {
          "format" : "int32",
          "type" : "integer"
        },
        "clientBusinessName" : {
          "type" : "string"
        },
        "clientShortName" : {
          "type" : "string"
        },
        "createdBy" : {
          "format" : "int32",
          "type" : "integer"
        },
        "clientCode" : {
          "type" : "string"
        },
        "clientWebSite" : {
          "type" : "string"
        },
        "clientStatus" : {
          "type" : "string"
        },
        "lastUpdatedDatetime" : {
          "format" : "int64",
          "type" : "integer"
        },
        "createdDatetime" : {
          "format" : "int64",
          "type" : "integer"
        }
      }
    },
    "hipIntegration" : {
      "x-WM-FULLY_QUALIFIED_NAME" : "createClientLocationIntegrationConfig.hipIntegration",
      "x-WM-TAGS" : [ "RestServiceVirtualController" ],
      "required" : [ "createdBy", "createdDatetime", "integrationAuthType", "integrationCategory", "integrationDescription", "integrationEndPoint", "integrationId", "integrationName", "integrationShortCode", "lastUpdatedDatetime", "requestType", "responseType", "updatedBy" ],
      "properties" : {
        "integrationCategory" : {
          "type" : "string"
        },
        "updatedBy" : {
          "type" : "string"
        },
        "requestType" : {
          "type" : "string"
        },
        "integrationName" : {
          "type" : "string"
        },
        "integrationId" : {
          "format" : "int32",
          "type" : "integer"
        },
        "lastUpdatedDatetime" : {
          "format" : "int64",
          "type" : "integer"
        },
        "integrationDescription" : {
          "type" : "string"
        },
        "responseType" : {
          "type" : "string"
        },
        "createdBy" : {
          "type" : "string"
        },
        "integrationShortCode" : {
          "type" : "string"
        },
        "integrationEndPoint" : {
          "type" : "string"
        },
        "integrationAuthType" : {
          "type" : "string"
        },
        "createdDatetime" : {
          "format" : "int64",
          "type" : "integer"
        }
      }
    },
    "hipClientLocation" : {
      "x-WM-FULLY_QUALIFIED_NAME" : "createClientLocationIntegrationConfig.hipClientLocation",
      "x-WM-TAGS" : [ "RestServiceVirtualController" ],
      "required" : [ "address1", "address2", "city", "clientId", "clientLocationId", "createdBy", "createdDatetime", "hipClient", "hipClientLocationByParentLocationId", "hipState", "hipTimezone", "lastUpdatedDatetime", "locationDescription", "locationName", "locationStatus", "parentLocationId", "pmLocationId", "pmLocationName", "shortLocationName", "stateId", "timezoneId", "updatedBy", "zip" ],
      "properties" : {
        "zip" : {
          "type" : "string"
        },
        "hipClient" : {
          "$ref" : "#/definitions/hipClient"
        },
        "parentLocationId" : {
          "type" : "string"
        },
        "clientId" : {
          "format" : "int32",
          "type" : "integer"
        },
        "locationName" : {
          "type" : "string"
        },
        "updatedBy" : {
          "type" : "string"
        },
        "address2" : {
          "type" : "string"
        },
        "city" : {
          "type" : "string"
        },
        "address1" : {
          "type" : "string"
        },
        "hipClientLocationByParentLocationId" : {
          "type" : "string"
        },
        "locationDescription" : {
          "type" : "string"
        },
        "stateId" : {
          "format" : "int32",
          "type" : "integer"
        },
        "lastUpdatedDatetime" : {
          "format" : "int64",
          "type" : "integer"
        },
        "clientLocationId" : {
          "format" : "int32",
          "type" : "integer"
        },
        "hipState" : {
          "$ref" : "#/definitions/hipState"
        },
        "locationStatus" : {
          "type" : "string"
        },
        "createdBy" : {
          "type" : "string"
        },
        "shortLocationName" : {
          "type" : "string"
        },
        "timezoneId" : {
          "format" : "int32",
          "type" : "integer"
        },
        "createdDatetime" : {
          "format" : "int64",
          "type" : "integer"
        },
        "hipTimezone" : {
          "$ref" : "#/definitions/hipTimezone"
        },
        "pmLocationId" : {
          "type" : "string"
        },
        "pmLocationName" : {
          "type" : "string"
        }
      }
    },
    "hipIntegrationServiceList" : {
      "x-WM-FULLY_QUALIFIED_NAME" : "createClientLocationIntegrationConfig.hipIntegrationServiceList",
      "x-WM-TAGS" : [ "RestServiceVirtualController" ],
      "required" : [ "createdBy", "createdDatetime", "hipIntegration", "integrationId", "integrationServiceId", "integrationSvcDescription", "integrationSvcEndPoint", "integrationSvcName", "integrationSvcType", "lastUpdatedDatetime", "updatedBy" ],
      "properties" : {
        "updatedBy" : {
          "type" : "string"
        },
        "hipIntegration" : {
          "$ref" : "#/definitions/hipIntegration"
        },
        "createdBy" : {
          "type" : "string"
        },
        "integrationId" : {
          "format" : "int32",
          "type" : "integer"
        },
        "lastUpdatedDatetime" : {
          "format" : "int64",
          "type" : "integer"
        },
        "createdDatetime" : {
          "format" : "int64",
          "type" : "integer"
        },
        "integrationServiceId" : {
          "format" : "int32",
          "type" : "integer"
        },
        "integrationSvcEndPoint" : {
          "type" : "string"
        },
        "integrationSvcType" : {
          "type" : "string"
        },
        "integrationSvcName" : {
          "type" : "string"
        },
        "integrationSvcDescription" : {
          "type" : "string"
        }
      }
    },
    "RootRequest" : {
      "x-WM-FULLY_QUALIFIED_NAME" : "createClientLocationIntegrationConfig.RootRequest",
      "x-WM-TAGS" : [ "RestServiceVirtualController" ],
      "required" : [ "clientLocationId", "configDescription", "configKey", "configStatus", "configValue", "createdBy", "createdDatetime", "integrationServiceId", "lastUpdatedDatetime", "locationIntegrationConfigId", "updatedBy" ],
      "properties" : {
        "configKey" : {
          "type" : "string"
        },
        "locationIntegrationConfigId" : {
          "type" : "string"
        },
        "updatedBy" : {
          "type" : "string"
        },
        "createdBy" : {
          "type" : "string"
        },
        "configDescription" : {
          "type" : "string"
        },
        "lastUpdatedDatetime" : {
          "format" : "int64",
          "type" : "integer"
        },
        "clientLocationId" : {
          "format" : "int32",
          "type" : "integer"
        },
        "createdDatetime" : {
          "format" : "int64",
          "type" : "integer"
        },
        "integrationServiceId" : {
          "format" : "int32",
          "type" : "integer"
        },
        "configStatus" : {
          "type" : "string"
        },
        "configValue" : {
          "type" : "string"
        }
      }
    },
    "hipTimezone" : {
      "x-WM-FULLY_QUALIFIED_NAME" : "createClientLocationIntegrationConfig.hipTimezone",
      "x-WM-TAGS" : [ "RestServiceVirtualController" ],
      "required" : [ "createdBy", "createdDatetime", "gmtOffset", "lastUpdatedDatetime", "timezoneId", "timezoneName", "updatedBy" ],
      "properties" : {
        "updatedBy" : {
          "type" : "string"
        },
        "createdBy" : {
          "format" : "int32",
          "type" : "integer"
        },
        "gmtOffset" : {
          "type" : "string"
        },
        "timezoneId" : {
          "format" : "int32",
          "type" : "integer"
        },
        "timezoneName" : {
          "type" : "string"
        },
        "lastUpdatedDatetime" : {
          "type" : "string"
        },
        "createdDatetime" : {
          "type" : "string"
        }
      }
    },
    "hipCountry" : {
      "x-WM-FULLY_QUALIFIED_NAME" : "createClientLocationIntegrationConfig.hipCountry",
      "x-WM-TAGS" : [ "RestServiceVirtualController" ],
      "required" : [ "countryId", "countryLongName", "countryName", "createdBy", "createdDatetime", "iso2Code", "iso3Code", "lastUpdatedDatetime", "updatedBy" ],
      "properties" : {
        "updatedBy" : {
          "type" : "string"
        },
        "createdBy" : {
          "format" : "int32",
          "type" : "integer"
        },
        "countryLongName" : {
          "type" : "string"
        },
        "iso2Code" : {
          "type" : "string"
        },
        "lastUpdatedDatetime" : {
          "type" : "string"
        },
        "createdDatetime" : {
          "format" : "int64",
          "type" : "integer"
        },
        "countryName" : {
          "type" : "string"
        },
        "iso3Code" : {
          "type" : "string"
        },
        "countryId" : {
          "format" : "int32",
          "type" : "integer"
        }
      }
    },
    "hipState" : {
      "x-WM-FULLY_QUALIFIED_NAME" : "createClientLocationIntegrationConfig.hipState",
      "x-WM-TAGS" : [ "RestServiceVirtualController" ],
      "required" : [ "countryId", "createdBy", "createdDatettime", "hipCountry", "lastUpdatedDatetime", "stateCode", "stateId", "stateName", "updatedBy" ],
      "properties" : {
        "updatedBy" : {
          "type" : "string"
        },
        "stateName" : {
          "type" : "string"
        },
        "createdBy" : {
          "type" : "string"
        },
        "stateId" : {
          "format" : "int32",
          "type" : "integer"
        },
        "createdDatettime" : {
          "format" : "int64",
          "type" : "integer"
        },
        "lastUpdatedDatetime" : {
          "type" : "string"
        },
        "stateCode" : {
          "type" : "string"
        },
        "hipCountry" : {
          "$ref" : "#/definitions/hipCountry"
        },
        "countryId" : {
          "format" : "int32",
          "type" : "integer"
        }
      }
    },
    "RootResponse" : {
      "x-WM-FULLY_QUALIFIED_NAME" : "createClientLocationIntegrationConfig.RootResponse",
      "x-WM-TAGS" : [ "RestServiceVirtualController" ],
      "required" : [ "clientLocationId", "configDescription", "configKey", "configStatus", "configValue", "createdBy", "createdDatetime", "hipClientLocation", "hipIntegrationServiceList", "integrationServiceId", "lastUpdatedDatetime", "locationIntegrationConfigId", "updatedBy" ],
      "properties" : {
        "updatedBy" : {
          "type" : "string"
        },
        "lastUpdatedDatetime" : {
          "format" : "int64",
          "type" : "integer"
        },
        "clientLocationId" : {
          "format" : "int32",
          "type" : "integer"
        },
        "integrationServiceId" : {
          "format" : "int32",
          "type" : "integer"
        },
        "configStatus" : {
          "type" : "string"
        },
        "configValue" : {
          "type" : "string"
        },
        "configKey" : {
          "type" : "string"
        },
        "locationIntegrationConfigId" : {
          "format" : "int32",
          "type" : "integer"
        },
        "createdBy" : {
          "type" : "string"
        },
        "configDescription" : {
          "type" : "string"
        },
        "hipClientLocation" : {
          "$ref" : "#/definitions/hipClientLocation"
        },
        "hipIntegrationServiceList" : {
          "$ref" : "#/definitions/hipIntegrationServiceList"
        },
        "createdDatetime" : {
          "format" : "int64",
          "type" : "integer"
        }
      }
    }
  },
  "swagger" : "2.0",
  "info" : {
    "x-WM-USE_PROXY_FOR_WEB" : true,
    "x-WM-USE_PROXY_FOR_MOBILE" : true,
    "x-WM-API_ID" : "b3b65456-ac53-4838-beb6-f99aeb2a4377",
    "x-WM-SERVICE_ID" : "healthipass",
    "version" : "2.0",
    "x-WM-SERVICE_TYPE" : "RestService"
  },
  "tags" : [ {
    "name" : "RestServiceVirtualController",
    "description" : "Rest service swagger documentation"
  } ]
}