{
  "clientLocationById" : {
    "_id" : "wm-clientLocationById-wm.ServiceVariable-1535369373111",
    "name" : "clientLocationById",
    "owner" : "Page",
    "category" : "wm.ServiceVariable",
    "dataBinding" : [ {
      "target" : "id",
      "value" : "bind:pageParams.locationId",
      "type" : "string"
    } ],
    "type" : "clientLocationById.RootResponse",
    "service" : "clientLocationById",
    "operation" : "invoke",
    "operationId" : "clientLocationById_RestServiceVirtualController-invoke",
    "operationType" : "get",
    "serviceType" : "RestService",
    "dataSet" : [ ],
    "isList" : false,
    "maxResults" : 20,
    "startUpdate" : false,
    "autoUpdate" : true,
    "inFlightBehavior" : "executeLast",
    "transformationRequired" : false,
    "saveInPhonegap" : false,
    "controller" : "RestServiceVirtual"
  },
  "clientLocationConfigList" : {
    "_id" : "wm-clientLocationConfigList-wm.ServiceVariable-1535029725817",
    "name" : "clientLocationConfigList",
    "owner" : "Page",
    "category" : "wm.ServiceVariable",
    "dataBinding" : [ {
      "target" : "q",
      "value" : "bind:\"clientLocationId=\"+pageParams.locationId",
      "type" : "string"
    }, {
      "target" : "size",
      "value" : "5",
      "type" : "string"
    } ],
    "type" : "clientLocationConfigList.RootResponse",
    "service" : "clientLocationConfigList",
    "operation" : "invoke",
    "operationId" : "clientLocationConfigList_RestServiceVirtualController-invoke",
    "operationType" : "get",
    "serviceType" : "RestService",
    "dataSet" : [ ],
    "isList" : false,
    "maxResults" : 20,
    "startUpdate" : true,
    "autoUpdate" : false,
    "inFlightBehavior" : "executeLast",
    "transformationRequired" : false,
    "saveInPhonegap" : false,
    "controller" : "RestServiceVirtual"
  },
  "configList" : {
    "_id" : "wm-configList-wm.ServiceVariable-1534931140556",
    "name" : "configList",
    "owner" : "Page",
    "category" : "wm.ServiceVariable",
    "dataBinding" : [ ],
    "type" : "configList.RootResponse",
    "service" : "configList",
    "operation" : "invoke",
    "operationId" : "configList_RestServiceVirtualController-invoke",
    "operationType" : "get",
    "serviceType" : "RestService",
    "dataSet" : [ ],
    "isList" : false,
    "maxResults" : 20,
    "startUpdate" : true,
    "autoUpdate" : true,
    "inFlightBehavior" : "executeLast",
    "transformationRequired" : false,
    "saveInPhonegap" : false,
    "controller" : "RestServiceVirtual"
  },
  "createClientLocationConfig" : {
    "_id" : "wm-createClientLocationConfig-wm.ServiceVariable-1534931481376",
    "name" : "createClientLocationConfig",
    "owner" : "Page",
    "category" : "wm.ServiceVariable",
    "dataBinding" : [ {
      "isList" : false,
      "target" : "RequestBody",
      "value" : "{\n\t\t\t\"clientLocationConfigId\": 3,\n\t\t\t\"configId\": 1,\n\t\t\t\"clientLocationId\": 6,\n\t\t\t\"configStatus\": \"Y\",\n\t\t\t\"configValue\": \"desc\",\n\t\t\t\"locConfigDescription\": \"ui desc\",\n\t\t\t\"createdBy\": null,\n\t\t\t\"createdDatetime\": null,\n\t\t\t\"updatedBy\": null,\n\t\t\t\"lastUpdatedDatetime\": null,\n\t\t\t\"version\": 1\n\t\t\t}",
      "type" : "createClientLocationConfig.RootRequest"
    } ],
    "type" : "createClientLocationConfig.RootResponse",
    "service" : "createClientLocationConfig",
    "operation" : "invoke",
    "operationId" : "createClientLocationConfig_RestServiceVirtualController-invoke",
    "operationType" : "post",
    "serviceType" : "RestService",
    "dataSet" : [ ],
    "isList" : false,
    "maxResults" : 20,
    "onSuccess" : "Widgets.dialogManageClientLocation.close();Variables.clientLocationConfigList.invoke()",
    "startUpdate" : false,
    "autoUpdate" : false,
    "inFlightBehavior" : "executeLast",
    "transformationRequired" : false,
    "saveInPhonegap" : false,
    "controller" : "RestServiceVirtual"
  },
  "editClientLocationConfig" : {
    "_id" : "wm-editClientLocationConfig-wm.ServiceVariable-1535029608108",
    "name" : "editClientLocationConfig",
    "owner" : "Page",
    "category" : "wm.ServiceVariable",
    "dataBinding" : [ {
      "isList" : false,
      "target" : "RequestBody",
      "value" : "{\n\t\t\t\"clientLocationConfigId\": 3,\n\t\t\t\"configId\": 1,\n\t\t\t\"clientLocationId\": 6,\n\t\t\t\"configStatus\": \"Y\",\n\t\t\t\"configValue\": \"desc\",\n\t\t\t\"locConfigDescription\": \"ui desc\",\n\t\t\t\"createdBy\": null,\n\t\t\t\"createdDatetime\": null,\n\t\t\t\"updatedBy\": null,\n\t\t\t\"lastUpdatedDatetime\": null,\n\t\t\t\"version\": 1\n\t\t\t}",
      "type" : "editClientLocationConfig.RootRequest"
    }, {
      "target" : "id",
      "value" : "bind:Variables.stvEditLocationConfig.dataSet.clientLocationConfigId",
      "type" : "string"
    } ],
    "type" : "editClientLocationConfig.RootResponse",
    "service" : "editClientLocationConfig",
    "operation" : "invoke",
    "operationId" : "editClientLocationConfig_RestServiceVirtualController-invoke",
    "operationType" : "put",
    "serviceType" : "RestService",
    "dataSet" : [ ],
    "isList" : false,
    "maxResults" : 20,
    "onSuccess" : "Widgets.dialogManageClientLocation.close();Variables.clientLocationConfigList.invoke()",
    "startUpdate" : false,
    "autoUpdate" : false,
    "inFlightBehavior" : "executeLast",
    "transformationRequired" : false,
    "saveInPhonegap" : false,
    "controller" : "RestServiceVirtual"
  },
  "stvBreadcrumb" : {
    "_id" : "wm-staticVariable1-wm.Variable-1535113423243",
    "name" : "stvBreadcrumb",
    "owner" : "Page",
    "category" : "wm.Variable",
    "dataBinding" : [ ],
    "dataSet" : [ {
      "page" : "",
      "label" : "Main",
      "icon" : "",
      "link" : "/Main",
      "role" : "",
      "type" : ""
    }, {
      "page" : "Clients",
      "label" : "Client Details",
      "icon" : "",
      "link" : "/Clients",
      "role" : "",
      "type" : ""
    }, {
      "page" : "SettingsClientLocations",
      "label" : "Locations",
      "icon" : "",
      "link" : "/SettingsClientLocations",
      "role" : "",
      "type" : ""
    }, {
      "page" : "",
      "label" : "Location Configurations",
      "icon" : "",
      "link" : "",
      "role" : "",
      "type" : ""
    } ],
    "type" : "entry",
    "isList" : false,
    "saveInPhonegap" : false
  },
  "stvConfigStatus" : {
    "_id" : "wm-stvConfigStatus-wm.Variable-1534931358673",
    "name" : "stvConfigStatus",
    "owner" : "Page",
    "category" : "wm.Variable",
    "dataBinding" : [ ],
    "dataSet" : [ {
      "key" : "Yes",
      "dataValue" : "Yes"
    }, {
      "key" : "No",
      "dataValue" : "No"
    } ],
    "type" : "string",
    "isList" : true,
    "saveInPhonegap" : false
  },
  "stvCreateLocationConfig" : {
    "_id" : "wm-stvCreateLocation-wm.Variable-1534931640967",
    "name" : "stvCreateLocationConfig",
    "owner" : "Page",
    "category" : "wm.Variable",
    "dataBinding" : [ {
      "target" : "configId",
      "value" : "bind:Widgets.createClientLocationConfigForm.formWidgets.selectConfigKey.datavalue | numberToString"
    }, {
      "target" : "clientLocationId",
      "value" : "bind:pageParams.locationId | stringToNumber"
    }, {
      "target" : "configStatus",
      "value" : "bind:Widgets.createClientLocationConfigForm.formWidgets.selectConfigStatus.datavalue"
    }, {
      "target" : "configValue",
      "value" : "bind:Widgets.createClientLocationConfigForm.formWidgets.textConfigValue.datavalue"
    }, {
      "target" : "version",
      "value" : "bind:1"
    }, {
      "target" : "configDescription",
      "value" : "bind:Widgets.createClientLocationConfigForm.formWidgets.textConfigDescription.datavalue"
    }, {
      "target" : "createdDatetime",
      "value" : "bind:1534523356000"
    } ],
    "dataSet" : {
      "clientLocationConfigId" : "",
      "configId" : "",
      "clientLocationId" : "",
      "configStatus" : "",
      "configValue" : "",
      "configDescription" : "",
      "createdBy" : null,
      "createdDatetime" : 1534917356000,
      "updatedBy" : null,
      "lastUpdatedDatetime" : null,
      "version" : ""
    },
    "type" : "string",
    "isList" : false,
    "saveInPhonegap" : false
  },
  "stvEditLocationConfig" : {
    "_id" : "wm-stvEditLocation-wm.Variable-1534931705908",
    "name" : "stvEditLocationConfig",
    "owner" : "Page",
    "category" : "wm.Variable",
    "dataBinding" : [ ],
    "dataSet" : {
      "clientLocationConfigId" : "",
      "configId" : "",
      "clientLocationId" : "",
      "configStatus" : "",
      "configValue" : "",
      "configDescription" : "",
      "createdBy" : null,
      "createdDatetime" : 1534917356000,
      "updatedBy" : null,
      "lastUpdatedDatetime" : null,
      "version" : ""
    },
    "type" : "string",
    "isList" : false,
    "saveInPhonegap" : false
  }
}