{
  "basePath" : "${rest.editIntegrationService.basepath}",
  "paths" : {
    "/services/hip/integrationServiceLists/{id}" : {
      "x-WM-BASE_PATH" : "/services/hip/integrationServiceLists/{id}",
      "x-WM-TAG" : "RestServiceVirtualController",
      "x-WM-RELATIVE_PATH" : "",
      "x-WM-COMPLETE_PATH" : "${rest.editIntegrationService.scheme}://${rest.editIntegrationService.host}${rest.editIntegrationService.basepath}/services/hip/integrationServiceLists/{id}",
      "put" : {
        "x-WM-METHOD_NAME" : "invoke",
        "x-WM-ACCESS_SPECIFIER" : "APP_ONLY",
        "produces" : [ "application/json" ],
        "operationId" : "editIntegrationService_RestServiceVirtualController-invoke",
        "responses" : {
          "200" : {
            "schema" : {
              "$ref" : "#/definitions/RootResponse"
            },
            "description" : "Success"
          }
        },
        "parameters" : [ {
          "schema" : {
            "$ref" : "#/definitions/RootRequest"
          },
          "in" : "body",
          "name" : "RequestBody",
          "description" : "RequestBody",
          "x-WM-FULLY_QUALIFIED_TYPE" : "java.lang.Object",
          "required" : false
        }, {
          "in" : "path",
          "name" : "id",
          "type" : "string",
          "required" : true
        } ],
        "tags" : [ "RestServiceVirtualController" ],
        "consumes" : [ "application/json" ]
      }
    }
  },
  "host" : "${rest.editIntegrationService.host}",
  "schemes" : [ "${rest.editIntegrationService.scheme}" ],
  "definitions" : {
    "hipIntegration" : {
      "x-WM-FULLY_QUALIFIED_NAME" : "editIntegrationService.hipIntegration",
      "x-WM-TAGS" : [ "RestServiceVirtualController" ],
      "required" : [ "createdBy", "createdDatetime", "integrationAuthType", "integrationCategory", "integrationDescription", "integrationEndPoint", "integrationId", "integrationName", "integrationShortCode", "lastUpdatedDatetime", "requestType", "responseType", "updatedBy" ],
      "properties" : {
        "integrationCategory" : {
          "type" : "string"
        },
        "updatedBy" : {
          "type" : "string"
        },
        "requestType" : {
          "type" : "string"
        },
        "integrationName" : {
          "type" : "string"
        },
        "integrationId" : {
          "format" : "int32",
          "type" : "integer"
        },
        "lastUpdatedDatetime" : {
          "format" : "int64",
          "type" : "integer"
        },
        "integrationDescription" : {
          "type" : "string"
        },
        "responseType" : {
          "type" : "string"
        },
        "createdBy" : {
          "type" : "string"
        },
        "integrationShortCode" : {
          "type" : "string"
        },
        "integrationEndPoint" : {
          "type" : "string"
        },
        "integrationAuthType" : {
          "type" : "string"
        },
        "createdDatetime" : {
          "format" : "int64",
          "type" : "integer"
        }
      }
    },
    "RootRequest" : {
      "x-WM-FULLY_QUALIFIED_NAME" : "editIntegrationService.RootRequest",
      "x-WM-TAGS" : [ "RestServiceVirtualController" ],
      "required" : [ "createdBy", "createdDatetime", "integrationId", "integrationServiceId", "integrationSvcDescription", "integrationSvcEndPoint", "integrationSvcName", "integrationSvcType", "lastUpdatedDatetime", "updatedBy" ],
      "properties" : {
        "updatedBy" : {
          "type" : "string"
        },
        "createdBy" : {
          "type" : "string"
        },
        "integrationId" : {
          "format" : "int32",
          "type" : "integer"
        },
        "lastUpdatedDatetime" : {
          "format" : "int64",
          "type" : "integer"
        },
        "createdDatetime" : {
          "format" : "int64",
          "type" : "integer"
        },
        "integrationServiceId" : {
          "format" : "int32",
          "type" : "integer"
        },
        "integrationSvcEndPoint" : {
          "type" : "string"
        },
        "integrationSvcType" : {
          "type" : "string"
        },
        "integrationSvcName" : {
          "type" : "string"
        },
        "integrationSvcDescription" : {
          "type" : "string"
        }
      }
    },
    "RootResponse" : {
      "x-WM-FULLY_QUALIFIED_NAME" : "editIntegrationService.RootResponse",
      "x-WM-TAGS" : [ "RestServiceVirtualController" ],
      "required" : [ "createdBy", "createdDatetime", "hipIntegration", "integrationId", "integrationServiceId", "integrationSvcDescription", "integrationSvcEndPoint", "integrationSvcName", "integrationSvcType", "lastUpdatedDatetime", "updatedBy" ],
      "properties" : {
        "updatedBy" : {
          "type" : "string"
        },
        "hipIntegration" : {
          "$ref" : "#/definitions/hipIntegration"
        },
        "createdBy" : {
          "type" : "string"
        },
        "integrationId" : {
          "format" : "int32",
          "type" : "integer"
        },
        "lastUpdatedDatetime" : {
          "format" : "int64",
          "type" : "integer"
        },
        "createdDatetime" : {
          "format" : "int64",
          "type" : "integer"
        },
        "integrationServiceId" : {
          "format" : "int32",
          "type" : "integer"
        },
        "integrationSvcEndPoint" : {
          "type" : "string"
        },
        "integrationSvcType" : {
          "type" : "string"
        },
        "integrationSvcName" : {
          "type" : "string"
        },
        "integrationSvcDescription" : {
          "type" : "string"
        }
      }
    }
  },
  "swagger" : "2.0",
  "info" : {
    "x-WM-USE_PROXY_FOR_WEB" : true,
    "x-WM-USE_PROXY_FOR_MOBILE" : true,
    "x-WM-API_ID" : "ff3f488d-e953-4817-8fd7-042454a15c7a",
    "x-WM-SERVICE_ID" : "healthipass",
    "version" : "2.0",
    "x-WM-SERVICE_TYPE" : "RestService"
  },
  "tags" : [ {
    "name" : "RestServiceVirtualController",
    "description" : "Rest service swagger documentation"
  } ]
}