{
  "basePath" : "${rest.createConfig.basepath}",
  "paths" : {
    "/services/hip/configs" : {
      "post" : {
        "x-WM-METHOD_NAME" : "invoke",
        "x-WM-ACCESS_SPECIFIER" : "APP_ONLY",
        "produces" : [ "application/json" ],
        "operationId" : "createConfig_RestServiceVirtualController-invoke",
        "responses" : {
          "200" : {
            "schema" : {
              "$ref" : "#/definitions/RootResponse"
            },
            "description" : "Success"
          }
        },
        "parameters" : [ {
          "schema" : {
            "$ref" : "#/definitions/RootRequest"
          },
          "in" : "body",
          "name" : "RequestBody",
          "description" : "RequestBody",
          "x-WM-FULLY_QUALIFIED_TYPE" : "java.lang.Object",
          "required" : false
        } ],
        "tags" : [ "RestServiceVirtualController" ],
        "consumes" : [ "application/json" ]
      },
      "x-WM-BASE_PATH" : "/services/hip/configs",
      "x-WM-TAG" : "RestServiceVirtualController",
      "x-WM-RELATIVE_PATH" : "",
      "x-WM-COMPLETE_PATH" : "${rest.createConfig.scheme}://${rest.createConfig.host}${rest.createConfig.basepath}/services/hip/configs"
    }
  },
  "host" : "${rest.createConfig.host}",
  "schemes" : [ "${rest.createConfig.scheme}" ],
  "definitions" : {
    "RootRequest" : {
      "x-WM-FULLY_QUALIFIED_NAME" : "createConfig.RootRequest",
      "x-WM-TAGS" : [ "RestServiceVirtualController" ],
      "required" : [ "configDescription", "configId", "configKey", "configName", "createdBy", "createdDatetime", "dataType", "lastUpdatedDatetime", "updatedBy", "version" ],
      "properties" : {
        "configName" : {
          "type" : "string"
        },
        "configKey" : {
          "type" : "string"
        },
        "updatedBy" : {
          "format" : "int32",
          "type" : "integer"
        },
        "createdBy" : {
          "format" : "int32",
          "type" : "integer"
        },
        "configId" : {
          "type" : "string"
        },
        "configDescription" : {
          "type" : "string"
        },
        "dataType" : {
          "type" : "string"
        },
        "lastUpdatedDatetime" : {
          "format" : "int64",
          "type" : "integer"
        },
        "createdDatetime" : {
          "format" : "int64",
          "type" : "integer"
        },
        "version" : {
          "format" : "int32",
          "type" : "integer"
        }
      }
    },
    "RootResponse" : {
      "x-WM-FULLY_QUALIFIED_NAME" : "createConfig.RootResponse",
      "x-WM-TAGS" : [ "RestServiceVirtualController" ],
      "required" : [ "configDescription", "configId", "configKey", "configName", "createdBy", "createdDatetime", "dataType", "lastUpdatedDatetime", "updatedBy", "version" ],
      "properties" : {
        "configName" : {
          "type" : "string"
        },
        "configKey" : {
          "type" : "string"
        },
        "updatedBy" : {
          "format" : "int32",
          "type" : "integer"
        },
        "createdBy" : {
          "format" : "int32",
          "type" : "integer"
        },
        "configId" : {
          "format" : "int32",
          "type" : "integer"
        },
        "configDescription" : {
          "type" : "string"
        },
        "dataType" : {
          "type" : "string"
        },
        "lastUpdatedDatetime" : {
          "format" : "int64",
          "type" : "integer"
        },
        "createdDatetime" : {
          "format" : "int64",
          "type" : "integer"
        },
        "version" : {
          "format" : "int32",
          "type" : "integer"
        }
      }
    }
  },
  "swagger" : "2.0",
  "info" : {
    "x-WM-USE_PROXY_FOR_WEB" : true,
    "x-WM-USE_PROXY_FOR_MOBILE" : true,
    "x-WM-API_ID" : "39dcb4fb-2dbe-4220-acf7-9d151a0ebc1b",
    "x-WM-SERVICE_ID" : "healthipass",
    "version" : "2.0",
    "x-WM-SERVICE_TYPE" : "RestService"
  },
  "tags" : [ {
    "name" : "RestServiceVirtualController",
    "description" : "Rest service swagger documentation"
  } ]
}