{
  "basePath" : "${rest.editClientLocationIntegration.basepath}",
  "paths" : {
    "/services/hip/clientLocationIntegrations/{id}" : {
      "x-WM-BASE_PATH" : "/services/hip/clientLocationIntegrations/{id}",
      "x-WM-TAG" : "RestServiceVirtualController",
      "x-WM-RELATIVE_PATH" : "",
      "x-WM-COMPLETE_PATH" : "${rest.editClientLocationIntegration.scheme}://${rest.editClientLocationIntegration.host}${rest.editClientLocationIntegration.basepath}/services/hip/clientLocationIntegrations/{id}",
      "put" : {
        "x-WM-METHOD_NAME" : "invoke",
        "x-WM-ACCESS_SPECIFIER" : "APP_ONLY",
        "produces" : [ "application/json" ],
        "operationId" : "editClientLocationIntegration_RestServiceVirtualController-invoke",
        "responses" : {
          "200" : {
            "schema" : {
              "$ref" : "#/definitions/RootResponse"
            },
            "description" : "Success"
          }
        },
        "parameters" : [ {
          "schema" : {
            "$ref" : "#/definitions/RootRequest"
          },
          "in" : "body",
          "name" : "RequestBody",
          "description" : "RequestBody",
          "x-WM-FULLY_QUALIFIED_TYPE" : "java.lang.Object",
          "required" : false
        }, {
          "in" : "path",
          "name" : "id",
          "type" : "string",
          "required" : true
        } ],
        "tags" : [ "RestServiceVirtualController" ],
        "consumes" : [ "application/json" ]
      }
    }
  },
  "host" : "${rest.editClientLocationIntegration.host}",
  "schemes" : [ "${rest.editClientLocationIntegration.scheme}" ],
  "definitions" : {
    "hipClient" : {
      "x-WM-FULLY_QUALIFIED_NAME" : "editClientLocationIntegration.hipClient",
      "x-WM-TAGS" : [ "RestServiceVirtualController" ],
      "required" : [ "clientBusinessName", "clientCode", "clientId", "clientShortName", "clientStatus", "clientWebSite", "createdBy", "createdDatetime", "lastUpdatedDatetime", "updatedBy" ],
      "properties" : {
        "clientId" : {
          "format" : "int32",
          "type" : "integer"
        },
        "updatedBy" : {
          "format" : "int32",
          "type" : "integer"
        },
        "clientBusinessName" : {
          "type" : "string"
        },
        "clientShortName" : {
          "type" : "string"
        },
        "createdBy" : {
          "format" : "int32",
          "type" : "integer"
        },
        "clientCode" : {
          "type" : "string"
        },
        "clientWebSite" : {
          "type" : "string"
        },
        "clientStatus" : {
          "type" : "string"
        },
        "lastUpdatedDatetime" : {
          "format" : "int64",
          "type" : "integer"
        },
        "createdDatetime" : {
          "format" : "int64",
          "type" : "integer"
        }
      }
    },
    "hipIntegration" : {
      "x-WM-FULLY_QUALIFIED_NAME" : "editClientLocationIntegration.hipIntegration",
      "x-WM-TAGS" : [ "RestServiceVirtualController" ],
      "required" : [ "createdBy", "createdDatetime", "integrationAuthType", "integrationCategory", "integrationDescription", "integrationEndPoint", "integrationId", "integrationName", "integrationShortCode", "lastUpdatedDatetime", "requestType", "responseType", "updatedBy" ],
      "properties" : {
        "integrationCategory" : {
          "type" : "string"
        },
        "updatedBy" : {
          "type" : "string"
        },
        "requestType" : {
          "type" : "string"
        },
        "integrationName" : {
          "type" : "string"
        },
        "integrationId" : {
          "format" : "int32",
          "type" : "integer"
        },
        "lastUpdatedDatetime" : {
          "format" : "int64",
          "type" : "integer"
        },
        "integrationDescription" : {
          "type" : "string"
        },
        "responseType" : {
          "type" : "string"
        },
        "createdBy" : {
          "type" : "string"
        },
        "integrationShortCode" : {
          "type" : "string"
        },
        "integrationEndPoint" : {
          "type" : "string"
        },
        "integrationAuthType" : {
          "type" : "string"
        },
        "createdDatetime" : {
          "format" : "int64",
          "type" : "integer"
        }
      }
    },
    "hipClientLocation" : {
      "x-WM-FULLY_QUALIFIED_NAME" : "editClientLocationIntegration.hipClientLocation",
      "x-WM-TAGS" : [ "RestServiceVirtualController" ],
      "required" : [ "address1", "address2", "city", "clientId", "clientLocationId", "createdBy", "createdDatetime", "hipClient", "hipClientLocationByParentLocationId", "hipState", "hipTimezone", "lastUpdatedDatetime", "locationDescription", "locationName", "locationStatus", "parentLocationId", "pmLocationId", "pmLocationName", "shortLocationName", "stateId", "timezoneId", "updatedBy", "zip" ],
      "properties" : {
        "zip" : {
          "type" : "string"
        },
        "hipClient" : {
          "$ref" : "#/definitions/hipClient"
        },
        "parentLocationId" : {
          "type" : "string"
        },
        "clientId" : {
          "format" : "int32",
          "type" : "integer"
        },
        "locationName" : {
          "type" : "string"
        },
        "updatedBy" : {
          "type" : "string"
        },
        "address2" : {
          "type" : "string"
        },
        "city" : {
          "type" : "string"
        },
        "address1" : {
          "type" : "string"
        },
        "hipClientLocationByParentLocationId" : {
          "type" : "string"
        },
        "locationDescription" : {
          "type" : "string"
        },
        "stateId" : {
          "format" : "int32",
          "type" : "integer"
        },
        "lastUpdatedDatetime" : {
          "format" : "int64",
          "type" : "integer"
        },
        "clientLocationId" : {
          "format" : "int32",
          "type" : "integer"
        },
        "hipState" : {
          "$ref" : "#/definitions/hipState"
        },
        "locationStatus" : {
          "type" : "string"
        },
        "createdBy" : {
          "type" : "string"
        },
        "shortLocationName" : {
          "type" : "string"
        },
        "timezoneId" : {
          "format" : "int32",
          "type" : "integer"
        },
        "createdDatetime" : {
          "format" : "int64",
          "type" : "integer"
        },
        "hipTimezone" : {
          "$ref" : "#/definitions/hipTimezone"
        },
        "pmLocationId" : {
          "type" : "string"
        },
        "pmLocationName" : {
          "type" : "string"
        }
      }
    },
    "RootRequest" : {
      "x-WM-FULLY_QUALIFIED_NAME" : "editClientLocationIntegration.RootRequest",
      "x-WM-TAGS" : [ "RestServiceVirtualController" ],
      "required" : [ "clientLocationId", "clientLocationIntegrationId", "createdBy", "createdDatetime", "integrationId", "lastUpdatedDatetime", "locationIntegrationDescription", "locationIntegrationStatus", "updatedBy", "version" ],
      "properties" : {
        "clientLocationIntegrationId" : {
          "format" : "int32",
          "type" : "integer"
        },
        "locationIntegrationDescription" : {
          "type" : "string"
        },
        "updatedBy" : {
          "type" : "string"
        },
        "createdBy" : {
          "type" : "string"
        },
        "locationIntegrationStatus" : {
          "type" : "string"
        },
        "integrationId" : {
          "format" : "int32",
          "type" : "integer"
        },
        "lastUpdatedDatetime" : {
          "format" : "int64",
          "type" : "integer"
        },
        "clientLocationId" : {
          "format" : "int32",
          "type" : "integer"
        },
        "createdDatetime" : {
          "format" : "int64",
          "type" : "integer"
        },
        "version" : {
          "format" : "int32",
          "type" : "integer"
        }
      }
    },
    "hipTimezone" : {
      "x-WM-FULLY_QUALIFIED_NAME" : "editClientLocationIntegration.hipTimezone",
      "x-WM-TAGS" : [ "RestServiceVirtualController" ],
      "required" : [ "createdBy", "createdDatetime", "gmtOffset", "lastUpdatedDatetime", "timezoneId", "timezoneName", "updatedBy" ],
      "properties" : {
        "updatedBy" : {
          "type" : "string"
        },
        "createdBy" : {
          "format" : "int32",
          "type" : "integer"
        },
        "gmtOffset" : {
          "type" : "string"
        },
        "timezoneId" : {
          "format" : "int32",
          "type" : "integer"
        },
        "timezoneName" : {
          "type" : "string"
        },
        "lastUpdatedDatetime" : {
          "type" : "string"
        },
        "createdDatetime" : {
          "type" : "string"
        }
      }
    },
    "hipCountry" : {
      "x-WM-FULLY_QUALIFIED_NAME" : "editClientLocationIntegration.hipCountry",
      "x-WM-TAGS" : [ "RestServiceVirtualController" ],
      "required" : [ "countryId", "countryLongName", "countryName", "createdBy", "createdDatetime", "iso2Code", "iso3Code", "lastUpdatedDatetime", "updatedBy" ],
      "properties" : {
        "updatedBy" : {
          "type" : "string"
        },
        "createdBy" : {
          "format" : "int32",
          "type" : "integer"
        },
        "countryLongName" : {
          "type" : "string"
        },
        "iso2Code" : {
          "type" : "string"
        },
        "lastUpdatedDatetime" : {
          "type" : "string"
        },
        "createdDatetime" : {
          "format" : "int64",
          "type" : "integer"
        },
        "countryName" : {
          "type" : "string"
        },
        "iso3Code" : {
          "type" : "string"
        },
        "countryId" : {
          "format" : "int32",
          "type" : "integer"
        }
      }
    },
    "hipState" : {
      "x-WM-FULLY_QUALIFIED_NAME" : "editClientLocationIntegration.hipState",
      "x-WM-TAGS" : [ "RestServiceVirtualController" ],
      "required" : [ "countryId", "createdBy", "createdDatettime", "hipCountry", "lastUpdatedDatetime", "stateCode", "stateId", "stateName", "updatedBy" ],
      "properties" : {
        "updatedBy" : {
          "type" : "string"
        },
        "stateName" : {
          "type" : "string"
        },
        "createdBy" : {
          "type" : "string"
        },
        "stateId" : {
          "format" : "int32",
          "type" : "integer"
        },
        "createdDatettime" : {
          "format" : "int64",
          "type" : "integer"
        },
        "lastUpdatedDatetime" : {
          "type" : "string"
        },
        "stateCode" : {
          "type" : "string"
        },
        "hipCountry" : {
          "$ref" : "#/definitions/hipCountry"
        },
        "countryId" : {
          "format" : "int32",
          "type" : "integer"
        }
      }
    },
    "RootResponse" : {
      "x-WM-FULLY_QUALIFIED_NAME" : "editClientLocationIntegration.RootResponse",
      "x-WM-TAGS" : [ "RestServiceVirtualController" ],
      "required" : [ "clientLocationId", "clientLocationIntegrationId", "createdBy", "createdDatetime", "hipClientLocation", "hipIntegration", "integrationId", "lastUpdatedDatetime", "locationIntegrationDescription", "locationIntegrationStatus", "updatedBy", "version" ],
      "properties" : {
        "clientLocationIntegrationId" : {
          "format" : "int32",
          "type" : "integer"
        },
        "locationIntegrationDescription" : {
          "type" : "string"
        },
        "updatedBy" : {
          "type" : "string"
        },
        "hipIntegration" : {
          "$ref" : "#/definitions/hipIntegration"
        },
        "createdBy" : {
          "type" : "string"
        },
        "locationIntegrationStatus" : {
          "type" : "string"
        },
        "hipClientLocation" : {
          "$ref" : "#/definitions/hipClientLocation"
        },
        "integrationId" : {
          "format" : "int32",
          "type" : "integer"
        },
        "lastUpdatedDatetime" : {
          "format" : "int64",
          "type" : "integer"
        },
        "clientLocationId" : {
          "format" : "int32",
          "type" : "integer"
        },
        "createdDatetime" : {
          "format" : "int64",
          "type" : "integer"
        },
        "version" : {
          "format" : "int32",
          "type" : "integer"
        }
      }
    }
  },
  "swagger" : "2.0",
  "info" : {
    "x-WM-USE_PROXY_FOR_WEB" : true,
    "x-WM-USE_PROXY_FOR_MOBILE" : true,
    "x-WM-API_ID" : "e3e1f116-2d30-4bce-a057-751ca5e9335d",
    "x-WM-SERVICE_ID" : "healthipass",
    "version" : "2.0",
    "x-WM-SERVICE_TYPE" : "RestService"
  },
  "tags" : [ {
    "name" : "RestServiceVirtualController",
    "description" : "Rest service swagger documentation"
  } ]
}